LastOptPaths:
[
(1)[[1 2 3 5 15 41 59 78 92 111 130 144 159 178 197 217 231 255] [1 507 508 509 510 511 512 513 514 515 516 517 518 519 520 521 483] '387' 1.01705 
1]
(2)[[1 2 3 5 15 41 59 78 92 111 130 144 159 178 197 217 233 243 249 255] [1 507 508 509 510 511 512 513 514 515 516 517 518 519 520 522 523 524 501] '387' 1.01907 
1]
(3)[[1 6 19 43 69 84 98 117 136 150 168 179 195 224 236 248 251 254 255] [5 525 526 527 528 529 530 531 532 533 534 535 536 537 538 539 540 506] '387' 1.01812 
1]
(4)[[1 11 33 45 66 80 99 118 132 146 170 192 219 238 247 252 255] [10 544 545 546 547 548 549 550 551 552 553 554 555 556 557 504] '387' 1.01611 
2]
(5)[[1 17 34 54 76 91 104 123 142 157 175 187 205 229 255] [16 586 587 588 589 590 591 592 593 594 595 596 597 482] '387' 1.01407 
1]
(6)[[1 20 46 58 81 100 114 128 147 171 190 210 255] [20 598 599 600 601 602 603 604 605 606 607 462] '387' 1.11204 
1]
(7)[[1 24 51 75 94 108 122 141 163 184 202 255] [23 614 615 616 617 618 619 620 621 622 454] '387' 1.01103 
2]
(8)[[1 27 255] [27 280] '387' 1.002 
2]
(9)[[1 36 67 87 106 120 134 153 176 201 218 232 255] [34 623 624 625 626 627 628 629 630 631 632 484] '387' 1.01207 
1]
(10)[[1 36 67 87 106 120 134 153 176 201 220 237 245 255] [34 623 624 625 626 627 628 629 630 633 634 635 497] '387' 1.01311 
1]
(11)[[1 39 255] [38 291] '387' 1.002 
2]
(12)[[1 44 255] [44 297] '387' 1.002 
1]
(13)[[1 49 255] [48 301] '387' 1.002 
2]
(14)[[1 169 193 204 255] [168 636 637 456] '387' 1.00402 
1]
(15)[[1 169 193 255] [168 636 445] '387' 1.00302 
1]
(16)[[1 199 255] [199 452] '387' 1.002 
1]
(17)[[1 203 255] [202 455] '387' 1.002 
2]
(18)[[1 213 255] [212 465] '387' 1.002 
2]
(19)[[1 246 255] [245 498] '387' 1.002 
2]
(20)[[255 245 237 220 196 167 158 149 123 104 91 76 60 35 18 1] [17 638 639 640 589 590 591 641 642 643 644 645 634 635 497] '387' 1.01517 
1]
(21)[[255 183 160 1] [159 652 435] '387' 1.00301 
2]
(22)[[255 180 165 156 151 143 139 131 127 119 115 107 103 95 90 83 73 55 25 14 1] [13 558 559 560 561 562 563 564 565 566 567 568 569 570 571 572 573 574 663 431] '387' 1.02006 
1]
(23)[[255 230 221 216 206 200 189 182 172 150 136 117 98 84 69 43 19 1] [18 526 527 528 529 530 531 532 664 576 577 578 579 580 581 582 481] '387' 1.01705 
1]
(24)[[255 194 173 155 138 124 105 86 71 52 31 8 1] [6 665 666 667 668 669 670 671 672 673 674 446] '387' 1.01205 
1]
(25)[[255 244 239 234 212 192 166 50 28 10 1] [9 541 542 693 694 695 696 584 585 496] '387' 1.11442 
1]
(26)[[255 62 42 1] [41 708 314] '387' 1.00301 
1]
(27)[[1 23 53 74 93 112 126 140 161 188 211 227 241 249 255] [22 654 655 656 657 658 659 660 661 662 721 705 722 501] '387' 1.01406 
1]
(28)[[255 199 173 155 145 137 133 125 121 113 109 101 97 89 79 70 65 56 48 37 22 12 1] [11 681 735 610 734 611 612 613 733 732 731 730 746 745 744 743 742 741 740 673 739 452] '387' 1.02214 
1]
(29)[[255 222 196 167 151 143 117 98 84 62 42 1] [41 708 543 529 530 757 572 729 644 749 475] '387' 1.01119 
1]
(30)[[255 229 214 186 162 135 116 102 88 68 40 30 21 1] [19 608 748 647 648 649 747 650 725 726 727 728 482] '387' 1.01309 
1]
(31)[[255 242 225 209 185 166 50 28 10 1] [9 541 542 693 702 703 710 711 494] '387' 1.1134 
1]
(32)[[255 240 235 228 223 215 208 198 191 181 174 164 158 149 123 104 91 76 54 34 17 1] [16 586 587 588 589 590 591 641 642 738 712 737 713 714 715 716 717 718 719 720 492] '387' 1.0211 
1]
(33)[[255 205 187 175 153 134 120 106 87 67 44 1] [44 756 624 625 626 627 628 763 595 596 457] '387' 1.01103 
1]
(34)[[255 154 135 116 93 74 63 1] [62 723 656 724 650 651 406] '387' 1.00702 
1]
(35)[[255 180 157 63 1] [62 761 762 431] '387' 1.10705 
1]
(36)[[255 194 173 155 138 124 105 86 71 52 31 8 4 1] [3 675 665 666 667 668 669 670 671 672 673 674 446] '387' 1.01307 
1]
(37)[[255 162 135 116 102 88 68 40 13 1] [12 646 647 648 649 747 650 725 414] '387' 1.00904 
1]
(38)[[255 244 239 234 230 221 216 206 200 189 182 172 165 156 151 143 139 131 127 119 115 107 103 95 90 83 73 55 26 1] [25 709 560 561 562 563 564 565 566 567 568 569 570 571 572 573 574 575 576 577 578 579 580 581 582 583 584 585 496] '387' 1.02908 
1]
(39)[[255 254 251 248 236 224 195 179 168 150 136 111 92 85 77 72 64 57 47 38 29 22 12 1] [11 681 682 683 684 685 686 687 754 753 752 514 751 532 533 534 535 536 537 538 539 540 506] '387' 1.02317 
1]
(40)[[255 240 235 228 223 215 208 198 191 181 174 164 158 149 145 137 133 125 121 113 109 101 97 89 79 70 65 56 48 37 30 21 1] [19 608 609 610 734 611 612 613 733 732 731 730 746 745 744 743 742 741 750 642 738 712 737 713 714 715 716 717 718 719 720 492] '387' 1.03209 
1]
(41)[[255 154 129 110 96 82 72 64 57 47 38 29 16 1] [15 760 683 684 685 686 687 688 689 690 691 692 406] '387' 1.01308 
1]
(42)[[255 232 226 207 177 152 138 124 105 86 71 52 26 1] [25 736 667 668 669 670 671 676 677 678 679 680 484] '387' 1.01306 
1]
(43)[[255 210 190 171 147 128 121 113 109 101 97 89 85 77 72 64 25 14 1] [13 558 755 687 754 753 758 732 731 730 746 745 759 604 605 606 607 462] '387' 1.01809 
1]
(44)[[255 183 147 128 114 100 81 58 46 1] [45 599 600 601 602 603 604 764 435] '387' 1.00907 
1]
(45)[[255 253 250 241 227 211 188 161 140 126 112 93 74 53 23 9 1] [505 707 706 705 721 662 661 805 659 658 657 656 655 781 653 8] '387' 1.0161 
1]
(46)[[255 209 185 166 148 129 110 96 82 61 32 7 1] [461 703 702 701 700 787 690 689 699 795 697 7] '387' 1.01203 
1]
]
BestIntSolValWarmStart:55.9906
BestIntSolValBFWarmStart:431
