LastOptPaths:
[
(1)[[1 2 3 5 15 41 59 78 92 111 130 144 159 178 197 217 231 255] [1 507 508 509 510 511 512 513 514 515 516 517 518 519 520 521 483] '387' 1.01705 
1]
(2)[[1 2 3 5 15 41 59 78 92 111 130 144 159 178 197 217 233 243 249 255] [1 507 508 509 510 511 512 513 514 515 516 517 518 519 520 522 523 524 501] '387' 1.01907 
1]
(3)[[1 10 28 50 62 84 98 117 136 150 168 179 195 255] [9 541 542 543 544 529 530 531 532 533 534 535 447] '387' 1.01306 
1]
(4)[[1 11 33 45 66 80 99 118 132 146 170 192 219 238 247 252 255] [10 545 546 547 548 549 550 551 552 553 554 559 560 561 562 504] '387' 1.01611 
1]
(5)[[1 12 22 29 38 47 57 64 72 77 85 89 97 101 109 113 121 125 133 137 145 149 158 164 174 181 191 198 208 215 223 228 235 240 255] [11 563 564 565 566 567 568 569 570 571 572 573 574 575 576 577 578 579 580 581 582 583 584 585 586 587 588 589 590 591 592 593 594 492] '387' 1.03407 
1]
(6)[[1 17 34 54 76 91 104 123 142 157 175 187 205 229 255] [16 630 631 632 633 634 635 636 637 638 639 640 641 482] '387' 1.01407 
1]
(7)[[1 20 46 58 81 100 114 128 147 171 190 210 255] [20 642 621 622 623 624 625 626 627 628 629 462] '387' 1.11204 
1]
(8)[[1 24 51 75 94 108 122 141 163 184 202 255] [23 650 651 652 653 654 655 656 657 658 454] '387' 1.01103 
2]
(9)[[1 27 255] [27 280] '387' 1.002 
2]
(10)[[1 36 67 87 106 120 134 153 176 201 218 232 255] [34 664 665 666 667 668 669 670 671 672 673 484] '387' 1.01207 
1]
(11)[[1 36 67 87 106 120 134 153 176 201 220 237 245 255] [34 664 665 666 667 668 669 670 671 674 675 676 497] '387' 1.01311 
1]
(12)[[1 39 255] [38 291] '387' 1.002 
2]
(13)[[1 44 255] [44 297] '387' 1.002 
2]
(14)[[1 49 255] [48 301] '387' 1.002 
2]
(15)[[1 169 193 204 255] [168 685 686 456] '387' 1.00402 
1]
(16)[[1 169 193 255] [168 685 445] '387' 1.00302 
1]
(17)[[1 183 255] [182 435] '387' 1.002 
1]
(18)[[1 199 255] [199 452] '387' 1.002 
2]
(19)[[1 203 255] [202 455] '387' 1.002 
2]
(20)[[1 213 255] [212 465] '387' 1.002 
2]
(21)[[1 246 255] [245 498] '387' 1.002 
2]
(22)[[255 245 237 220 196 167 158 149 123 104 91 76 60 35 18 1] [17 687 688 689 633 634 635 690 583 691 683 692 675 676 497] '387' 1.01517 
1]
(23)[[255 154 135 116 102 88 68 40 13 1] [12 705 706 707 708 661 662 663 406] '387' 1.00901 
1]
(24)[[255 183 160 1] [159 709 435] '387' 1.00301 
2]
(25)[[255 254 251 248 236 224 205 187 175 157 142 123 104 91 76 54 34 17 1] [16 630 631 632 633 634 635 636 637 638 639 640 711 537 538 539 540 506] '387' 1.01809 
1]
(26)[[255 180 165 156 151 143 139 131 127 119 115 107 103 95 90 83 73 55 25 14 1] [13 595 596 597 598 599 600 601 602 603 604 605 606 607 608 609 610 611 712 431] '387' 1.02006 
1]
(27)[[255 230 221 216 206 200 189 182 172 150 136 117 98 84 69 43 19 1] [18 526 527 528 529 530 531 532 735 613 614 615 616 617 618 619 481] '387' 1.01705 
2]
(28)[[255 194 173 155 138 124 105 86 71 52 31 8 1] [6 722 723 724 725 726 727 728 753 677 678 446] '387' 1.01205 
1]
(29)[[255 232 226 207 177 152 138 124 105 86 71 52 31 8 4 1] [3 734 722 723 724 725 726 727 728 729 730 731 732 733 484] '387' 1.01506 
1]
(30)[[255 62 42 1] [41 752 314] '387' 1.00301 
1]
(31)[[255 240 235 228 223 215 208 198 191 181 174 164 1] [163 585 586 587 588 589 590 591 592 593 594 492] '387' 1.01202 
1]
(32)[[1 26 63 74 93 116 135 162 255] [25 659 746 695 748 662 747 414] '387' 1.10806 
1]
(33)[[1 63 102 116 135 162 186 214 229 255] [62 660 661 662 747 680 681 682 482] '387' 1.10927 
1]
(34)[[255 242 225 209 185 166 50 28 10 1] [494 742 741 737 736 754 542 541 9] '387' 1.1134 
1]
(35)[[255 252 247 238 219 192 166 148 129 110 103 95 85 77 72 64 57 47 38 29 22 12 1] [504 562 561 560 559 721 720 767 718 800 601 768 571 570 569 568 567 566 565 564 563 11] '387' 1.02217 
1]
(36)[[255 194 173 155 145 137 120 106 87 67 42 1] [446 678 677 744 581 791 667 666 665 743 41] '387' 1.01107 
1]
(37)[[255 210 190 171 147 128 114 100 81 58 46 16 1] [462 762 628 627 626 625 624 623 622 621 821 15] '387' 1.11204 
1]
(38)[[255 180 165 156 151 143 139 131 127 119 115 107 97 89 79 70 65 56 48 37 30 21 1] [431 816 611 610 609 608 607 606 605 604 603 807 573 750 649 648 647 646 645 644 643 19] '387' 1.02212 
1]
(39)[[255 154 129 110 96 82 61 32 7 1] [406 751 718 717 716 715 714 713 7] '387' 1.00905 
1]
(40)[[255 222 196 167 158 149 145 137 133 125 121 113 109 101 97 89 79 70 65 56 48 37 30 21 6 1] [475 684 683 691 583 582 581 580 579 578 577 576 575 574 573 750 649 648 647 646 645 644 643 783 5] '387' 1.02514 
1]
(41)[[255 244 239 234 212 192 170 146 132 118 99 80 66 45 33 11 1] [496 558 557 556 555 554 553 765 551 550 549 548 547 546 545 10] '387' 1.01604 
1]
(42)[[255 253 250 241 227 209 185 166 148 129 110 103 95 90 83 73 55 25 14 1] [505 740 739 703 738 737 736 720 767 718 800 601 600 599 598 597 596 595 13] '387' 1.01912 
1]
(43)[[255 244 239 234 211 188 161 140 126 112 93 74 53 23 1] [496 558 557 786 701 700 699 698 697 764 695 694 693 22] '387' 1.01409 
1]
(44)[[255 254 251 248 236 224 195 179 168 144 130 111 92 73 55 26 1] [506 540 539 538 537 536 803 534 792 516 515 514 799 597 756 25] '387' 1.01623 
1]
(45)[[255 249 241 227 211 188 161 140 126 112 93 74 53 23 9 1] [501 769 703 702 701 700 699 698 697 764 695 694 693 761 8] '387' 1.01506 
1]
]
BestIntSolValWarmStart:57.0712
BestIntSolValBFWarmStart:417
