LastOptPaths:
[
(1)[[1 2 3 5 15 41 59 78 92 111 130 144 159 178 197 217 231 255] [1 507 508 509 510 511 512 513 514 515 516 517 518 519 520 521 483] '387' 1.01705 
1]
(2)[[1 2 3 5 15 41 59 78 92 111 130 144 159 178 197 217 233 243 249 255] [1 507 508 509 510 511 512 513 514 515 516 517 518 519 520 522 523 524 501] '387' 1.01907 
1]
(3)[[1 6 19 43 69 84 98 117 136 150 168 179 195 224 236 248 251 254 255] [5 541 542 543 544 545 546 547 548 549 550 551 552 537 538 539 540 506] '387' 1.01812 
1]
(4)[[1 10 28 50 62 84 98 117 136 150 168 179 195 255] [9 580 581 582 583 545 546 547 548 549 550 551 447] '387' 1.01306 
1]
(5)[[1 10 28 50 62 255] [9 580 581 582 314] '387' 1.00501 
1]
(6)[[1 11 33 45 66 80 99 118 132 146 170 192 212 234 239 244 255] [10 584 585 586 587 588 589 590 591 592 593 594 595 596 597 496] '387' 1.01604 
1]
(7)[[1 11 33 45 66 80 99 118 132 146 170 192 219 238 247 252 255] [10 584 585 586 587 588 589 590 591 592 593 598 599 600 566 504] '387' 1.01611 
1]
(8)[[1 12 22 29 38 47 57 64 72 77 85 89 97 101 109 113 121 125 133 137 145 149 158 164 174 181 191 198 208 215 223 228 235 240 255] [11 601 602 603 604 605 606 607 608 609 610 611 612 613 614 615 616 617 618 619 620 621 622 623 624 625 626 627 628 629 630 631 632 492] '387' 1.03407 
2]
(9)[[1 14 25 55 73 83 90 95 103 107 115 119 127 131 139 143 151 156 165 172 182 189 200 206 216 221 230 234 239 244 255] [13 645 646 647 648 649 650 651 652 653 654 655 656 657 658 659 660 661 662 663 664 665 666 667 668 669 670 596 597 496] '387' 1.03007 
1]
(10)[[1 16 46 58 81 100 114 128 147 171 190 210 255] [15 672 673 674 675 676 677 678 679 680 681 462] '387' 1.11204 
1]
(11)[[1 17 34 54 76 91 104 123 142 157 175 187 205 229 255] [16 682 683 686 687 688 689 690 691 692 693 694 695 482] '387' 1.01407 
1]
(12)[[1 20 46 58 81 100 114 128 147 171 190 210 255] [20 698 673 674 675 676 677 678 679 680 681 462] '387' 1.11204 
1]
(13)[[1 21 30 37 48 56 65 70 79 255] [19 699 700 701 702 703 704 705 330] '387' 1.00901 
2]
(14)[[1 24 51 75 94 108 122 141 163 184 202 255] [23 706 707 708 709 710 711 712 713 714 454] '387' 1.01103 
2]
(15)[[1 26 63 102 116 135 154 255] [25 715 716 637 638 639 406] '387' 1.20722 
1]
(16)[[1 27 255] [27 280] '387' 1.002 
2]
(17)[[1 36 67 87 106 120 134 153 176 201 218 232 255] [34 721 722 723 724 725 726 727 728 729 730 484] '387' 1.01207 
1]
(18)[[1 36 67 87 106 120 134 153 176 201 220 237 245 255] [34 721 722 723 724 725 726 727 728 731 732 733 497] '387' 1.01311 
1]
(19)[[1 39 255] [38 291] '387' 1.002 
2]
(20)[[1 42 255] [41 294] '387' 1.002 
2]
(21)[[1 44 255] [44 297] '387' 1.002 
2]
(22)[[1 49 255] [48 301] '387' 1.002 
2]
(23)[[1 155 173 194 255] [154 734 735 446] '387' 1.00401 
2]
(24)[[1 160 180 255] [159 736 431] '387' 1.003 
1]
(25)[[1 162 186 214 229 255] [161 737 738 739 482] '387' 1.00504 
1]
(26)[[1 162 255] [161 414] '387' 1.002 
1]
(27)[[1 167 196 222 255] [166 741 742 475] '387' 1.00406 
1]
(28)[[1 169 193 204 255] [168 743 744 456] '387' 1.00402 
1]
(29)[[1 169 193 255] [168 743 445] '387' 1.00302 
1]
(30)[[1 183 255] [182 435] '387' 1.002 
2]
(31)[[1 199 255] [199 452] '387' 1.002 
2]
(32)[[1 203 255] [202 455] '387' 1.002 
2]
(33)[[1 213 255] [212 465] '387' 1.002 
2]
(34)[[1 246 255] [245 498] '387' 1.002 
2]
(35)[[255 245 237 220 196 167 158 149 123 104 91 76 60 35 18 1] [497 733 732 778 741 799 621 803 689 764 687 794 697 696 17] '387' 1.01517 
1]
(36)[[255 63 26 1] [315 715 25] '387' 1.10301 
1]
(37)[[255 249 241 227 211 188 161 140 126 112 93 74 53 23 1] [501 755 578 642 685 575 574 795 572 749 570 569 568 22] '387' 1.01406 
1]
(38)[[255 154 135 116 102 88 68 40 13 1] [406 639 638 637 636 635 634 633 12] '387' 1.00901 
1]
(39)[[255 183 160 1] [435 759 159] '387' 1.00301 
1]
(40)[[255 211 188 161 140 126 112 93 74 53 23 9 1] [463 685 575 574 795 572 749 570 569 568 567 8] '387' 1.01204 
1]
(41)[[255 254 251 248 236 224 205 187 175 157 142 123 104 91 76 54 34 17 1] [506 540 539 538 537 536 772 693 784 691 690 689 764 687 686 683 682 16] '387' 1.01809 
1]
(42)[[255 180 165 156 151 143 139 131 127 119 115 107 103 95 90 83 73 55 25 14 1] [431 758 661 660 659 658 657 656 655 654 653 652 651 650 649 648 647 646 645 13] '387' 1.02006 
1]
(43)[[255 238 219 192 166 148 129 110 96 82 61 32 7 1] [490 599 598 740 560 559 558 557 556 797 554 796 7] '387' 1.01309 
1]
(44)[[255 232 226 207 177 152 138 124 105 86 71 52 31 8 1] [484 720 719 787 534 533 532 531 530 529 528 527 526 6] '387' 1.01404 
1]
(45)[[255 124 105 86 71 52 31 8 4 1] [376 531 530 529 528 527 526 525 3] '387' 1.00904 
1]
(46)[[255 230 221 216 206 200 189 182 172 150 136 117 98 84 69 43 19 1] [481 669 668 667 666 665 664 663 786 548 547 546 761 544 543 542 18] '387' 1.01705 
1]
(47)[[255 253 250 241 227 209 185 166 1] [505 644 643 578 577 562 561 164] '387' 1.00809 
1]
(48)[[255 252 247 242 225 209 185 166 1] [504 566 565 564 563 562 561 164] '387' 1.00808 
1]
]
BestIntSolValWarmStart:63.0463
BestIntSolValBFWarmStart:400
