ARC: 
[
(1) ['SOURCE' '2P02DA' 1 2 [ '387' ] 1  0 0 9999 true 'sign-on' '' '']! --> Reading
(2) ['SOURCE' '2R05DA' 1 3 [ '387' ] 1  0 0 9999 true 'sign-on' '' '']! --> London Paddington
(3) ['SOURCE' '2P03DA' 1 4 [ '387' ] 1  0 0 9999 true 'sign-on' '' '']! --> Reading
(4) ['SOURCE' '2P04DA' 1 5 [ '387' ] 1  0 0 9999 true 'sign-on' '' '']! --> Reading
(5) ['SOURCE' '2P05DA' 1 6 [ '387' ] 1  0 0 9999 true 'sign-on' '' '']! --> Reading
(6) ['SOURCE' '2N20DA' 1 8 [ '387' ] 1  0 0 9999 true 'sign-on' '' '']! --> London Paddington
(7) ['SOURCE' '2P08DA' 1 7 [ '387' ] 1  0 0 9999 true 'sign-on' '' '']! --> Didcot Parkway
(8) ['SOURCE' '2P06DA' 1 9 [ '387' ] 1  0 0 9999 true 'sign-on' '' '']! --> Reading
(9) ['SOURCE' '2P07DA' 1 10 [ '387' ] 1  0 0 9999 true 'sign-on' '' '']! --> Reading
(10) ['SOURCE' '2R09DA' 1 11 [ '387' ] 1  0 0 9999 true 'sign-on' '' '']! --> London Paddington
(11) ['SOURCE' '2S02DB' 1 12 [ '387' ] 1  0 0 9999 true 'sign-on' '' '']! --> London Paddington
(12) ['SOURCE' '2P11DA' 1 13 [ '387' ] 1  0 0 9999 true 'sign-on' '' '']! --> Didcot Parkway
(13) ['SOURCE' '2L06DA' 1 14 [ '387' ] 1  0 0 9999 true 'sign-on' '' '']! --> Reading
(14) ['SOURCE' '2N21DA' 1 15 [ '387' ] 1  0 0 9999 true 'sign-on' '' '']! --> London Paddington
(15) ['SOURCE' '1P80DA' 1 16 [ '387' ] 1  0 0 9999 true 'sign-on' '' '']! --> Reading
(16) ['SOURCE' '1P01DA' 1 17 [ '387' ] 1  0 0 9999 true 'sign-on' '' '']! --> Didcot Parkway
(17) ['SOURCE' '2P10DA' 1 18 [ '387' ] 1  0 0 9999 true 'sign-on' '' '']! --> Reading
(18) ['SOURCE' '2N22DA' 1 19 [ '387' ] 1  0 0 9999 true 'sign-on' '' '']! --> London Paddington
(19) ['SOURCE' '2S04DB' 1 21 [ '387' ] 1  0 0 9999 true 'sign-on' '' '']! --> London Paddington
(20) ['SOURCE' '1P92DB' 1 20 [ '387' ] 1  0 0 9999 true 'sign-on' '' '']! --> Reading
(21) ['SOURCE' '2S03DB' 1 22 [ '387' ] 1  0 0 9999 true 'sign-on' '' '']! --> Hayes and Harlington
(22) ['SOURCE' '2N23DA' 1 23 [ '387' ] 1  0 0 9999 true 'sign-on' '' '']! --> London Paddington
(23) ['SOURCE' '2P12DA' 1 24 [ '387' ] 1  0 0 9999 true 'sign-on' '' '']! --> Reading
(24) ['SOURCE' '2P15DA' 1 25 [ '387' ] 1  0 0 9999 true 'sign-on' '' '']! --> Didcot Parkway
(25) ['SOURCE' '1P06DA' 1 26 [ '387' ] 1  0 0 9999 true 'sign-on' '' '']! --> Didcot Parkway
(26) ['SOURCE' '2R11DA' 1 28 [ '387' ] 1  0 0 9999 true 'sign-on' '' '']! --> London Paddington
(27) ['SOURCE' '2P13DA' 1 27 [ '387' ] 1  0 0 9999 true 'sign-on' '' '']! --> Reading
(28) ['SOURCE' '2S06DB' 1 29 [ '387' ] 1  0 0 9999 true 'sign-on' '' '']! --> London Paddington
(29) ['SOURCE' '2S05DB' 1 30 [ '387' ] 1  0 0 9999 true 'sign-on' '' '']! --> Hayes and Harlington
(30) ['SOURCE' '1P08DA' 1 31 [ '387' ] 1  0 0 9999 true 'sign-on' '' '']! --> Didcot Parkway
(31) ['SOURCE' '2N24DA' 1 32 [ '387' ] 1  0 0 9999 true 'sign-on' '' '']! --> London Paddington
(32) ['SOURCE' '1P05DA' 1 33 [ '387' ] 1  0 0 9999 true 'sign-on' '' '']! --> Reading
(33) ['SOURCE' '1R01DA' 1 34 [ '387' ] 1  0 0 9999 true 'sign-on' '' '']! --> London Paddington
(34) ['SOURCE' '2P16DA' 1 36 [ '387' ] 1  0 0 9999 true 'sign-on' '' '']! --> Reading
(35) ['SOURCE' '2R13DA' 1 35 [ '387' ] 1  0 0 9999 true 'sign-on' '' '']! --> London Paddington
(36) ['SOURCE' '2S08DB' 1 37 [ '387' ] 1  0 0 9999 true 'sign-on' '' '']! --> London Paddington
(37) ['SOURCE' '2S07DB' 1 38 [ '387' ] 1  0 0 9999 true 'sign-on' '' '']! --> Hayes and Harlington
(38) ['SOURCE' '1P11DA' 1 39 [ '387' ] 1  0 0 9999 true 'sign-on' '' '']! --> Didcot Parkway
(39) ['SOURCE' '2N25DA' 1 40 [ '387' ] 1  0 0 9999 true 'sign-on' '' '']! --> London Paddington
(40) ['SOURCE' '1P10DA' 1 41 [ '387' ] 1  0 0 9999 true 'sign-on' '' '']! --> Didcot Parkway
(41) ['SOURCE' '2P17DA' 1 42 [ '387' ] 1  0 0 9999 true 'sign-on' '' '']! --> Reading
(42) ['SOURCE' '2P20DA' 1 43 [ '387' ] 1  0 0 9999 true 'sign-on' '' '']! --> Didcot Parkway
(43) ['SOURCE' '2R15DA' 1 45 [ '387' ] 1  0 0 9999 true 'sign-on' '' '']! --> London Paddington
(44) ['SOURCE' '2P18DA' 1 44 [ '387' ] 1  0 0 9999 true 'sign-on' '' '']! --> Reading
(45) ['SOURCE' '1P09DA' 1 46 [ '387' ] 1  0 0 9999 true 'sign-on' '' '']! --> Maidenhead
(46) ['SOURCE' '2S10DB' 1 47 [ '387' ] 1  0 0 9999 true 'sign-on' '' '']! --> London Paddington
(47) ['SOURCE' '2S09DB' 1 48 [ '387' ] 1  0 0 9999 true 'sign-on' '' '']! --> Hayes and Harlington
(48) ['SOURCE' '1P15DA' 1 49 [ '387' ] 1  0 0 9999 true 'sign-on' '' '']! --> Didcot Parkway
(49) ['SOURCE' '2N26DA' 1 51 [ '387' ] 1  0 0 9999 true 'sign-on' '' '']! --> London Paddington
(50) ['SOURCE' '1P81DA' 1 50 [ '387' ] 1  0 0 9999 true 'sign-on' '' '']! --> Reading
(51) ['SOURCE' '1R02DA' 1 52 [ '387' ] 1  0 0 9999 true 'sign-on' '' '']! --> London Paddington
(52) ['SOURCE' '1P17DA' 1 53 [ '387' ] 1  0 0 9999 true 'sign-on' '' '']! --> Didcot Parkway
(53) ['SOURCE' '2R17DA' 1 55 [ '387' ] 1  0 0 9999 true 'sign-on' '' '']! --> London Paddington
(54) ['SOURCE' '2P21DA' 1 54 [ '387' ] 1  0 0 9999 true 'sign-on' '' '']! --> Reading
(55) ['SOURCE' '2S12DB' 1 56 [ '387' ] 1  0 0 9999 true 'sign-on' '' '']! --> London Paddington
(56) ['SOURCE' '2S11DB' 1 57 [ '387' ] 1  0 0 9999 true 'sign-on' '' '']! --> Hayes and Harlington
(57) ['SOURCE' '2N27DA' 1 58 [ '387' ] 1  0 0 9999 true 'sign-on' '' '']! --> London Paddington
(58) ['SOURCE' '2R19DA' 1 59 [ '387' ] 1  0 0 9999 true 'sign-on' '' '']! --> London Paddington
(59) ['SOURCE' '2P22DA' 1 60 [ '387' ] 1  0 0 9999 true 'sign-on' '' '']! --> Reading
(60) ['SOURCE' '2P25DA' 1 61 [ '387' ] 1  0 0 9999 true 'sign-on' '' '']! --> Didcot Parkway
(61) ['SOURCE' '2R20DA' 1 62 [ '387' ] 1  0 0 9999 true 'sign-on' '' '']! --> London Paddington
(62) ['SOURCE' '1P97DA' 1 63 [ '387' ] 1  0 0 9999 true 'sign-on' '' '']! --> Maidenhead
(63) ['SOURCE' '2S14DB' 1 64 [ '387' ] 1  0 0 9999 true 'sign-on' '' '']! --> London Paddington
(64) ['SOURCE' '2S13DB' 1 65 [ '387' ] 1  0 0 9999 true 'sign-on' '' '']! --> Hayes and Harlington
(65) ['SOURCE' '2P23DA' 1 66 [ '387' ] 1  0 0 9999 true 'sign-on' '' '']! --> Reading
(66) ['SOURCE' '2N28DA' 1 67 [ '387' ] 1  0 0 9999 true 'sign-on' '' '']! --> London Paddington
(67) ['SOURCE' '2P27DA' 1 68 [ '387' ] 1  0 0 9999 true 'sign-on' '' '']! --> Didcot Parkway
(68) ['SOURCE' '2R22DA' 1 69 [ '387' ] 1  0 0 9999 true 'sign-on' '' '']! --> London Paddington
(69) ['SOURCE' '2S16DB' 1 70 [ '387' ] 1  0 0 9999 true 'sign-on' '' '']! --> London Paddington
(70) ['SOURCE' '2S15DB' 1 72 [ '387' ] 1  0 0 9999 true 'sign-on' '' '']! --> Hayes and Harlington
(71) ['SOURCE' '2P26DA' 1 71 [ '387' ] 1  0 0 9999 true 'sign-on' '' '']! --> Reading
(72) ['SOURCE' '1P20DA' 1 73 [ '387' ] 1  0 0 9999 true 'sign-on' '' '']! --> Reading
(73) ['SOURCE' '2N29DA' 1 74 [ '387' ] 1  0 0 9999 true 'sign-on' '' '']! --> London Paddington
(74) ['SOURCE' '2P30DA' 1 75 [ '387' ] 1  0 0 9999 true 'sign-on' '' '']! --> Didcot Parkway
(75) ['SOURCE' '2R24DA' 1 76 [ '387' ] 1  0 0 9999 true 'sign-on' '' '']! --> London Paddington
(76) ['SOURCE' '2S18DB' 1 77 [ '387' ] 1  0 0 9999 true 'sign-on' '' '']! --> London Paddington
(77) ['SOURCE' '2S17DB' 1 79 [ '387' ] 1  0 0 9999 true 'sign-on' '' '']! --> Hayes and Harlington
(78) ['SOURCE' '2P28DA' 1 78 [ '387' ] 1  0 0 9999 true 'sign-on' '' '']! --> Reading
(79) ['SOURCE' '2N30DA' 1 80 [ '387' ] 1  0 0 9999 true 'sign-on' '' '']! --> London Paddington
(80) ['SOURCE' '2P32DA' 1 81 [ '387' ] 1  0 0 9999 true 'sign-on' '' '']! --> Didcot Parkway
(81) ['SOURCE' '2R26DA' 1 82 [ '387' ] 1  0 0 9999 true 'sign-on' '' '']! --> London Paddington
(82) ['SOURCE' '2S20DB' 1 83 [ '387' ] 1  0 0 9999 true 'sign-on' '' '']! --> London Paddington
(83) ['SOURCE' '2S19DB' 1 85 [ '387' ] 1  0 0 9999 true 'sign-on' '' '']! --> Hayes and Harlington
(84) ['SOURCE' '2P31DA' 1 84 [ '387' ] 1  0 0 9999 true 'sign-on' '' '']! --> Reading
(85) ['SOURCE' '2N31DA' 1 86 [ '387' ] 1  0 0 9999 true 'sign-on' '' '']! --> London Paddington
(86) ['SOURCE' '2P35DA' 1 87 [ '387' ] 1  0 0 9999 true 'sign-on' '' '']! --> Didcot Parkway
(87) ['SOURCE' '2R28DA' 1 88 [ '387' ] 1  0 0 9999 true 'sign-on' '' '']! --> London Paddington
(88) ['SOURCE' '2S22DB' 1 89 [ '387' ] 1  0 0 9999 true 'sign-on' '' '']! --> London Paddington
(89) ['SOURCE' '2S21DB' 1 90 [ '387' ] 1  0 0 9999 true 'sign-on' '' '']! --> Hayes and Harlington
(90) ['SOURCE' '2P33DA' 1 91 [ '387' ] 1  0 0 9999 true 'sign-on' '' '']! --> Reading
(91) ['SOURCE' '2N32DA' 1 92 [ '387' ] 1  0 0 9999 true 'sign-on' '' '']! --> London Paddington
(92) ['SOURCE' '2P37DA' 1 93 [ '387' ] 1  0 0 9999 true 'sign-on' '' '']! --> Didcot Parkway
(93) ['SOURCE' '2R30DA' 1 94 [ '387' ] 1  0 0 9999 true 'sign-on' '' '']! --> London Paddington
(94) ['SOURCE' '2S24DB' 1 95 [ '387' ] 1  0 0 9999 true 'sign-on' '' '']! --> London Paddington
(95) ['SOURCE' '2S23DB' 1 97 [ '387' ] 1  0 0 9999 true 'sign-on' '' '']! --> Hayes and Harlington
(96) ['SOURCE' '2P36DA' 1 96 [ '387' ] 1  0 0 9999 true 'sign-on' '' '']! --> Reading
(97) ['SOURCE' '2N33DA' 1 98 [ '387' ] 1  0 0 9999 true 'sign-on' '' '']! --> London Paddington
(98) ['SOURCE' '2P40DA' 1 99 [ '387' ] 1  0 0 9999 true 'sign-on' '' '']! --> Didcot Parkway
(99) ['SOURCE' '2R32DA' 1 100 [ '387' ] 1  0 0 9999 true 'sign-on' '' '']! --> London Paddington
(100) ['SOURCE' '2S26DB' 1 101 [ '387' ] 1  0 0 9999 true 'sign-on' '' '']! --> London Paddington
(101) ['SOURCE' '2S25DB' 1 103 [ '387' ] 1  0 0 9999 true 'sign-on' '' '']! --> Hayes and Harlington
(102) ['SOURCE' '2P38DA' 1 102 [ '387' ] 1  0 0 9999 true 'sign-on' '' '']! --> Reading
(103) ['SOURCE' '2N34DA' 1 104 [ '387' ] 1  0 0 9999 true 'sign-on' '' '']! --> London Paddington
(104) ['SOURCE' '2P42DA' 1 105 [ '387' ] 1  0 0 9999 true 'sign-on' '' '']! --> Didcot Parkway
(105) ['SOURCE' '2R34DA' 1 106 [ '387' ] 1  0 0 9999 true 'sign-on' '' '']! --> London Paddington
(106) ['SOURCE' '2S28DB' 1 107 [ '387' ] 1  0 0 9999 true 'sign-on' '' '']! --> London Paddington
(107) ['SOURCE' '2S27DB' 1 109 [ '387' ] 1  0 0 9999 true 'sign-on' '' '']! --> Hayes and Harlington
(108) ['SOURCE' '2P41DA' 1 108 [ '387' ] 1  0 0 9999 true 'sign-on' '' '']! --> Reading
(109) ['SOURCE' '2N35DA' 1 110 [ '387' ] 1  0 0 9999 true 'sign-on' '' '']! --> London Paddington
(110) ['SOURCE' '2P45DA' 1 111 [ '387' ] 1  0 0 9999 true 'sign-on' '' '']! --> Didcot Parkway
(111) ['SOURCE' '2R36DA' 1 112 [ '387' ] 1  0 0 9999 true 'sign-on' '' '']! --> London Paddington
(112) ['SOURCE' '2S30DB' 1 113 [ '387' ] 1  0 0 9999 true 'sign-on' '' '']! --> London Paddington
(113) ['SOURCE' '2S29DB' 1 115 [ '387' ] 1  0 0 9999 true 'sign-on' '' '']! --> Hayes and Harlington
(114) ['SOURCE' '2P43DA' 1 114 [ '387' ] 1  0 0 9999 true 'sign-on' '' '']! --> Reading
(115) ['SOURCE' '2N36DA' 1 116 [ '387' ] 1  0 0 9999 true 'sign-on' '' '']! --> London Paddington
(116) ['SOURCE' '2P47DA' 1 117 [ '387' ] 1  0 0 9999 true 'sign-on' '' '']! --> Didcot Parkway
(117) ['SOURCE' '2R38DA' 1 118 [ '387' ] 1  0 0 9999 true 'sign-on' '' '']! --> London Paddington
(118) ['SOURCE' '2S32DB' 1 119 [ '387' ] 1  0 0 9999 true 'sign-on' '' '']! --> London Paddington
(119) ['SOURCE' '2S31DB' 1 121 [ '387' ] 1  0 0 9999 true 'sign-on' '' '']! --> Hayes and Harlington
(120) ['SOURCE' '2P46DA' 1 120 [ '387' ] 1  0 0 9999 true 'sign-on' '' '']! --> Reading
(121) ['SOURCE' '2N37DA' 1 122 [ '387' ] 1  0 0 9999 true 'sign-on' '' '']! --> London Paddington
(122) ['SOURCE' '2P50DA' 1 123 [ '387' ] 1  0 0 9999 true 'sign-on' '' '']! --> Didcot Parkway
(123) ['SOURCE' '2R40DA' 1 124 [ '387' ] 1  0 0 9999 true 'sign-on' '' '']! --> London Paddington
(124) ['SOURCE' '2S34DB' 1 125 [ '387' ] 1  0 0 9999 true 'sign-on' '' '']! --> London Paddington
(125) ['SOURCE' '2S33DB' 1 127 [ '387' ] 1  0 0 9999 true 'sign-on' '' '']! --> Hayes and Harlington
(126) ['SOURCE' '2P48DA' 1 126 [ '387' ] 1  0 0 9999 true 'sign-on' '' '']! --> Reading
(127) ['SOURCE' '2N38DA' 1 128 [ '387' ] 1  0 0 9999 true 'sign-on' '' '']! --> London Paddington
(128) ['SOURCE' '2P52DA' 1 129 [ '387' ] 1  0 0 9999 true 'sign-on' '' '']! --> Didcot Parkway
(129) ['SOURCE' '2R42DA' 1 130 [ '387' ] 1  0 0 9999 true 'sign-on' '' '']! --> London Paddington
(130) ['SOURCE' '2S36DB' 1 131 [ '387' ] 1  0 0 9999 true 'sign-on' '' '']! --> London Paddington
(131) ['SOURCE' '2S35DB' 1 133 [ '387' ] 1  0 0 9999 true 'sign-on' '' '']! --> Hayes and Harlington
(132) ['SOURCE' '2P51DA' 1 132 [ '387' ] 1  0 0 9999 true 'sign-on' '' '']! --> Reading
(133) ['SOURCE' '2N39DA' 1 134 [ '387' ] 1  0 0 9999 true 'sign-on' '' '']! --> London Paddington
(134) ['SOURCE' '2P55DA' 1 135 [ '387' ] 1  0 0 9999 true 'sign-on' '' '']! --> Didcot Parkway
(135) ['SOURCE' '2R44DA' 1 136 [ '387' ] 1  0 0 9999 true 'sign-on' '' '']! --> London Paddington
(136) ['SOURCE' '2S38DB' 1 137 [ '387' ] 1  0 0 9999 true 'sign-on' '' '']! --> London Paddington
(137) ['SOURCE' '2S37DB' 1 139 [ '387' ] 1  0 0 9999 true 'sign-on' '' '']! --> Hayes and Harlington
(138) ['SOURCE' '2P53DA' 1 138 [ '387' ] 1  0 0 9999 true 'sign-on' '' '']! --> Reading
(139) ['SOURCE' '2N40DA' 1 140 [ '387' ] 1  0 0 9999 true 'sign-on' '' '']! --> London Paddington
(140) ['SOURCE' '2P57DA' 1 141 [ '387' ] 1  0 0 9999 true 'sign-on' '' '']! --> Didcot Parkway
(141) ['SOURCE' '2R46DA' 1 142 [ '387' ] 1  0 0 9999 true 'sign-on' '' '']! --> London Paddington
(142) ['SOURCE' '2S40DB' 1 143 [ '387' ] 1  0 0 9999 true 'sign-on' '' '']! --> London Paddington
(143) ['SOURCE' '2S39DB' 1 145 [ '387' ] 1  0 0 9999 true 'sign-on' '' '']! --> Hayes and Harlington
(144) ['SOURCE' '2P56DA' 1 144 [ '387' ] 1  0 0 9999 true 'sign-on' '' '']! --> Reading
(145) ['SOURCE' '2N41DA' 1 146 [ '387' ] 1  0 0 9999 true 'sign-on' '' '']! --> London Paddington
(146) ['SOURCE' '2P60DA' 1 147 [ '387' ] 1  0 0 9999 true 'sign-on' '' '']! --> Didcot Parkway
(147) ['SOURCE' '2R48DA' 1 148 [ '387' ] 1  0 0 9999 true 'sign-on' '' '']! --> London Paddington
(148) ['SOURCE' '2S42DB' 1 149 [ '387' ] 1  0 0 9999 true 'sign-on' '' '']! --> London Paddington
(149) ['SOURCE' '2S41DB' 1 151 [ '387' ] 1  0 0 9999 true 'sign-on' '' '']! --> Hayes and Harlington
(150) ['SOURCE' '2P58DA' 1 150 [ '387' ] 1  0 0 9999 true 'sign-on' '' '']! --> Reading
(151) ['SOURCE' '2N42DA' 1 152 [ '387' ] 1  0 0 9999 true 'sign-on' '' '']! --> London Paddington
(152) ['SOURCE' '1P35DA' 1 153 [ '387' ] 1  0 0 9999 true 'sign-on' '' '']! --> Didcot Parkway
(153) ['SOURCE' '1N40DA' 1 154 [ '387' ] 1  0 0 9999 true 'sign-on' '' '']! --> London Paddington
(154) ['SOURCE' '2R50DA' 1 155 [ '387' ] 1  0 0 9999 true 'sign-on' '' '']! --> London Paddington
(155) ['SOURCE' '2S44DB' 1 156 [ '387' ] 1  0 0 9999 true 'sign-on' '' '']! --> London Paddington
(156) ['SOURCE' '2S43DB' 1 158 [ '387' ] 1  0 0 9999 true 'sign-on' '' '']! --> Hayes and Harlington
(157) ['SOURCE' '2P61DA' 1 157 [ '387' ] 1  0 0 9999 true 'sign-on' '' '']! --> Reading
(158) ['SOURCE' '2R51DA' 1 159 [ '387' ] 1  0 0 9999 true 'sign-on' '' '']! --> London Paddington
(159) ['SOURCE' '2P62DA' 1 160 [ '387' ] 1  0 0 9999 true 'sign-on' '' '']! --> Reading
(160) ['SOURCE' '2P65DA' 1 161 [ '387' ] 1  0 0 9999 true 'sign-on' '' '']! --> Didcot Parkway
(161) ['SOURCE' '1D90DA' 1 162 [ '387' ] 1  0 0 9999 true 'sign-on' '' '']! --> London Paddington
(162) ['SOURCE' '2R52DA' 1 163 [ '387' ] 1  0 0 9999 true 'sign-on' '' '']! --> London Paddington
(163) ['SOURCE' '2S46DB' 1 164 [ '387' ] 1  0 0 9999 true 'sign-on' '' '']! --> London Paddington
(164) ['SOURCE' '2P63DA' 1 166 [ '387' ] 1  0 0 9999 true 'sign-on' '' '']! --> Reading
(165) ['SOURCE' '2S45DB' 1 165 [ '387' ] 1  0 0 9999 true 'sign-on' '' '']! --> Hayes and Harlington
(166) ['SOURCE' '1D91DA' 1 167 [ '387' ] 1  0 0 9999 true 'sign-on' '' '']! --> London Paddington
(167) ['SOURCE' '1N92DA' 1 168 [ '387' ] 1  0 0 9999 true 'sign-on' '' '']! --> London Paddington
(168) ['SOURCE' '2R53DA' 1 169 [ '387' ] 1  0 0 9999 true 'sign-on' '' '']! --> London Paddington
(169) ['SOURCE' '1P38DA' 1 170 [ '387' ] 1  0 0 9999 true 'sign-on' '' '']! --> Didcot Parkway
(170) ['SOURCE' '2R55DA' 1 171 [ '387' ] 1  0 0 9999 true 'sign-on' '' '']! --> London Paddington
(171) ['SOURCE' '2S48DB' 1 172 [ '387' ] 1  0 0 9999 true 'sign-on' '' '']! --> London Paddington
(172) ['SOURCE' '2S47DB' 1 174 [ '387' ] 1  0 0 9999 true 'sign-on' '' '']! --> Hayes and Harlington
(173) ['SOURCE' '2P66DA' 1 173 [ '387' ] 1  0 0 9999 true 'sign-on' '' '']! --> Reading
(174) ['SOURCE' '1N93DA' 1 175 [ '387' ] 1  0 0 9999 true 'sign-on' '' '']! --> London Paddington
(175) ['SOURCE' '2R58DA' 1 176 [ '387' ] 1  0 0 9999 true 'sign-on' '' '']! --> London Paddington
(176) ['SOURCE' '2P70DA' 1 177 [ '387' ] 1  0 0 9999 true 'sign-on' '' '']! --> Didcot Parkway
(177) ['SOURCE' '2P67DA' 1 178 [ '387' ] 1  0 0 9999 true 'sign-on' '' '']! --> Reading
(178) ['SOURCE' '2R59DA' 1 180 [ '387' ] 1  0 0 9999 true 'sign-on' '' '']! --> London Paddington
(179) ['SOURCE' '2P68DA' 1 179 [ '387' ] 1  0 0 9999 true 'sign-on' '' '']! --> Maidenhead
(180) ['SOURCE' '2S50DB' 1 181 [ '387' ] 1  0 0 9999 true 'sign-on' '' '']! --> London Paddington
(181) ['SOURCE' '2S49DB' 1 182 [ '387' ] 1  0 0 9999 true 'sign-on' '' '']! --> Hayes and Harlington
(182) ['SOURCE' '1D93DA(1)' 1 183 [ '387' ] 1  0 0 9999 true 'sign-on' '' '']! --> London Paddington
(183) ['SOURCE' '2P69DA' 1 184 [ '387' ] 1  0 0 9999 true 'sign-on' '' '']! --> Reading
(184) ['SOURCE' '2R60DA' 1 185 [ '387' ] 1  0 0 9999 true 'sign-on' '' '']! --> London Paddington
(185) ['SOURCE' '2P72DA' 1 186 [ '387' ] 1  0 0 9999 true 'sign-on' '' '']! --> Didcot Parkway
(186) ['SOURCE' '2R61DA' 1 188 [ '387' ] 1  0 0 9999 true 'sign-on' '' '']! --> London Paddington
(187) ['SOURCE' '2P74DA' 1 187 [ '387' ] 1  0 0 9999 true 'sign-on' '' '']! --> Maidenhead
(188) ['SOURCE' '2S52DB' 1 189 [ '387' ] 1  0 0 9999 true 'sign-on' '' '']! --> London Paddington
(189) ['SOURCE' '2S51DB' 1 191 [ '387' ] 1  0 0 9999 true 'sign-on' '' '']! --> Hayes and Harlington
(190) ['SOURCE' '2P71DA' 1 190 [ '387' ] 1  0 0 9999 true 'sign-on' '' '']! --> Reading
(191) ['SOURCE' '1D94DA' 1 192 [ '387' ] 1  0 0 9999 true 'sign-on' '' '']! --> London Paddington
(192) ['SOURCE' '1D93DA(2)' 1 193 [ '387' ] 1  0 0 9999 true 'sign-on' '' '']! --> Reading
(193) ['SOURCE' '2R62DA' 1 194 [ '387' ] 1  0 0 9999 true 'sign-on' '' '']! --> London Paddington
(194) ['SOURCE' '1R05DA' 1 195 [ '387' ] 1  0 0 9999 true 'sign-on' '' '']! --> London Paddington
(195) ['SOURCE' '2P75DA' 1 196 [ '387' ] 1  0 0 9999 true 'sign-on' '' '']! --> Didcot Parkway
(196) ['SOURCE' '2R63DA' 1 197 [ '387' ] 1  0 0 9999 true 'sign-on' '' '']! --> London Paddington
(197) ['SOURCE' '2S54DB' 1 198 [ '387' ] 1  0 0 9999 true 'sign-on' '' '']! --> London Paddington
(198) ['SOURCE' '2S53DB' 1 200 [ '387' ] 1  0 0 9999 true 'sign-on' '' '']! --> Hayes and Harlington
(199) ['SOURCE' '1D95DA' 1 199 [ '387' ] 1  0 0 9999 true 'sign-on' '' '']! --> London Paddington
(200) ['SOURCE' '2P73DA' 1 201 [ '387' ] 1  0 0 9999 true 'sign-on' '' '']! --> Reading
(201) ['SOURCE' '1N96DA' 1 202 [ '387' ] 1  0 0 9999 true 'sign-on' '' '']! --> London Paddington
(202) ['SOURCE' '2R64DA' 1 203 [ '387' ] 1  0 0 9999 true 'sign-on' '' '']! --> London Paddington
(203) ['SOURCE' '2P77DA(1)' 1 204 [ '387' ] 1  0 0 9999 true 'sign-on' '' '']! --> Didcot Parkway
(204) ['SOURCE' '2R65DA' 1 205 [ '387' ] 1  0 0 9999 true 'sign-on' '' '']! --> London Paddington
(205) ['SOURCE' '2S56DB' 1 206 [ '387' ] 1  0 0 9999 true 'sign-on' '' '']! --> London Paddington
(206) ['SOURCE' '2S55DB' 1 208 [ '387' ] 1  0 0 9999 true 'sign-on' '' '']! --> Hayes and Harlington
(207) ['SOURCE' '1D97DA' 1 207 [ '387' ] 1  0 0 9999 true 'sign-on' '' '']! --> London Paddington
(208) ['SOURCE' '2P76DA' 1 209 [ '387' ] 1  0 0 9999 true 'sign-on' '' '']! --> Reading
(209) ['SOURCE' '2N43DA' 1 210 [ '387' ] 1  0 0 9999 true 'sign-on' '' '']! --> London Paddington
(210) ['SOURCE' '2P77DA(2)' 1 211 [ '387' ] 1  0 0 9999 true 'sign-on' '' '']! --> Reading
(211) ['SOURCE' '2P80DA' 1 212 [ '387' ] 1  0 0 9999 true 'sign-on' '' '']! --> Didcot Parkway
(212) ['SOURCE' '1D98DA' 1 213 [ '387' ] 1  0 0 9999 true 'sign-on' '' '']! --> London Paddington
(213) ['SOURCE' '2R67DA' 1 214 [ '387' ] 1  0 0 9999 true 'sign-on' '' '']! --> London Paddington
(214) ['SOURCE' '2S58DB' 1 215 [ '387' ] 1  0 0 9999 true 'sign-on' '' '']! --> London Paddington
(215) ['SOURCE' '2S57DB' 1 216 [ '387' ] 1  0 0 9999 true 'sign-on' '' '']! --> Hayes and Harlington
(216) ['SOURCE' '2P78DA' 1 217 [ '387' ] 1  0 0 9999 true 'sign-on' '' '']! --> Reading
(217) ['SOURCE' '2R68DA' 1 218 [ '387' ] 1  0 0 9999 true 'sign-on' '' '']! --> London Paddington
(218) ['SOURCE' '2P82DA' 1 219 [ '387' ] 1  0 0 9999 true 'sign-on' '' '']! --> Didcot Parkway
(219) ['SOURCE' '2R69DA' 1 220 [ '387' ] 1  0 0 9999 true 'sign-on' '' '']! --> London Paddington
(220) ['SOURCE' '2S60DB' 1 221 [ '387' ] 1  0 0 9999 true 'sign-on' '' '']! --> London Paddington
(221) ['SOURCE' '2S59DB' 1 223 [ '387' ] 1  0 0 9999 true 'sign-on' '' '']! --> Hayes and Harlington
(222) ['SOURCE' '1R04DA' 1 222 [ '387' ] 1  0 0 9999 true 'sign-on' '' '']! --> London Paddington
(223) ['SOURCE' '2P81DA' 1 224 [ '387' ] 1  0 0 9999 true 'sign-on' '' '']! --> Reading
(224) ['SOURCE' '2N45DA' 1 225 [ '387' ] 1  0 0 9999 true 'sign-on' '' '']! --> London Paddington
(225) ['SOURCE' '2P85DA(1)' 1 226 [ '387' ] 1  0 0 9999 true 'sign-on' '' '']! --> Didcot Parkway
(226) ['SOURCE' '2R71DA' 1 227 [ '387' ] 1  0 0 9999 true 'sign-on' '' '']! --> London Paddington
(227) ['SOURCE' '2S62DB' 1 228 [ '387' ] 1  0 0 9999 true 'sign-on' '' '']! --> London Paddington
(228) ['SOURCE' '2S61DB' 1 230 [ '387' ] 1  0 0 9999 true 'sign-on' '' '']! --> Hayes and Harlington
(229) ['SOURCE' '2P83DA' 1 229 [ '387' ] 1  0 0 9999 true 'sign-on' '' '']! --> Reading
(230) ['SOURCE' '2N46DA' 1 231 [ '387' ] 1  0 0 9999 true 'sign-on' '' '']! --> London Paddington
(231) ['SOURCE' '2P85DA(2)' 1 232 [ '387' ] 1  0 0 9999 true 'sign-on' '' '']! --> Reading
(232) ['SOURCE' '2R73DA' 1 233 [ '387' ] 1  0 0 9999 true 'sign-on' '' '']! --> London Paddington
(233) ['SOURCE' '2S64DB' 1 234 [ '387' ] 1  0 0 9999 true 'sign-on' '' '']! --> London Paddington
(234) ['SOURCE' '2S63DB' 1 235 [ '387' ] 1  0 0 9999 true 'sign-on' '' '']! --> Hayes and Harlington
(235) ['SOURCE' '2N47DA' 1 236 [ '387' ] 1  0 0 9999 true 'sign-on' '' '']! --> London Paddington
(236) ['SOURCE' '2P86DA' 1 237 [ '387' ] 1  0 0 9999 true 'sign-on' '' '']! --> Reading
(237) ['SOURCE' '2R75DA' 1 238 [ '387' ] 1  0 0 9999 true 'sign-on' '' '']! --> London Paddington
(238) ['SOURCE' '2S65DB' 1 239 [ '387' ] 1  0 0 9999 true 'sign-on' '' '']! --> Hayes and Harlington
(239) ['SOURCE' '2N48DA' 1 240 [ '387' ] 1  0 0 9999 true 'sign-on' '' '']! --> London Paddington
(240) ['SOURCE' '2P88DA' 1 241 [ '387' ] 1  0 0 9999 true 'sign-on' '' '']! --> Reading
(241) ['SOURCE' '2L89DA' 1 242 [ '387' ] 1  0 0 9999 true 'sign-on' '' '']! --> Didcot Parkway
(242) ['SOURCE' '2P90DA' 1 243 [ '387' ] 1  0 0 9999 true 'sign-on' '' '']! --> Reading
(243) ['SOURCE' '2R79DA' 1 244 [ '387' ] 1  0 0 9999 true 'sign-on' '' '']! --> London Paddington
(244) ['SOURCE' '2R80DA' 1 245 [ '387' ] 1  0 0 9999 true 'sign-on' '' '']! --> London Paddington
(245) ['SOURCE' '2R81DA' 1 246 [ '387' ] 1  0 0 9999 true 'sign-on' '' '']! --> London Paddington
(246) ['SOURCE' '2P93DA' 1 247 [ '387' ] 1  0 0 9999 true 'sign-on' '' '']! --> Reading
(247) ['SOURCE' '2L97DA' 1 248 [ '387' ] 1  0 0 9999 true 'sign-on' '' '']! --> Didcot Parkway
(248) ['SOURCE' '2N49DA' 1 249 [ '387' ] 1  0 0 9999 true 'sign-on' '' '']! --> London Paddington
(249) ['SOURCE' '2R84DA' 1 250 [ '387' ] 1  0 0 9999 true 'sign-on' '' '']! --> London Paddington
(250) ['SOURCE' '2P95DA' 1 251 [ '387' ] 1  0 0 9999 true 'sign-on' '' '']! --> Reading
(251) ['SOURCE' '2R86DA' 1 252 [ '387' ] 1  0 0 9999 true 'sign-on' '' '']! --> London Paddington
(252) ['SOURCE' '2P01DA' 1 253 [ '387' ] 1  0 0 9999 true 'sign-on' '' '']! --> Reading
(253) ['SOURCE' '2R01DA' 1 254 [ '387' ] 1  0 0 9999 true 'sign-on' '' '']! --> London Paddington
(254) ['2P02DA' 'SINK' 2 255 [ '387' ] 1  0 0 9999 true 'sign-off' '' '']!London Paddington --> 
(255) ['2R05DA' 'SINK' 3 255 [ '387' ] 1  0 0 9999 true 'sign-off' '' '']!Reading --> 
(256) ['2P03DA' 'SINK' 4 255 [ '387' ] 1  0 0 9999 true 'sign-off' '' '']!London Paddington --> 
(257) ['2P04DA' 'SINK' 5 255 [ '387' ] 1  0 0 9999 true 'sign-off' '' '']!London Paddington --> 
(258) ['2P05DA' 'SINK' 6 255 [ '387' ] 1  0 0 9999 true 'sign-off' '' '']!London Paddington --> 
(259) ['2N20DA' 'SINK' 8 255 [ '387' ] 1  0 0 9999 true 'sign-off' '' '']!Didcot Parkway --> 
(260) ['2P08DA' 'SINK' 7 255 [ '387' ] 1  0 0 9999 true 'sign-off' '' '']!London Paddington --> 
(261) ['2P06DA' 'SINK' 9 255 [ '387' ] 1  0 0 9999 true 'sign-off' '' '']!London Paddington --> 
(262) ['2P07DA' 'SINK' 10 255 [ '387' ] 1  0 0 9999 true 'sign-off' '' '']!London Paddington --> 
(263) ['2R09DA' 'SINK' 11 255 [ '387' ] 1  0 0 9999 true 'sign-off' '' '']!Reading --> 
(264) ['2S02DB' 'SINK' 12 255 [ '387' ] 1  0 0 9999 true 'sign-off' '' '']!Hayes and Harlington --> 
(265) ['2P11DA' 'SINK' 13 255 [ '387' ] 1  0 0 9999 true 'sign-off' '' '']!London Paddington --> 
(266) ['2L06DA' 'SINK' 14 255 [ '387' ] 1  0 0 9999 true 'sign-off' '' '']!Didcot Parkway --> 
(267) ['2N21DA' 'SINK' 15 255 [ '387' ] 1  0 0 9999 true 'sign-off' '' '']!Didcot Parkway --> 
(268) ['1P80DA' 'SINK' 16 255 [ '387' ] 1  0 0 9999 true 'sign-off' '' '']!London Paddington --> 
(269) ['1P01DA' 'SINK' 17 255 [ '387' ] 1  0 0 9999 true 'sign-off' '' '']!London Paddington --> 
(270) ['2P10DA' 'SINK' 18 255 [ '387' ] 1  0 0 9999 true 'sign-off' '' '']!London Paddington --> 
(271) ['2N22DA' 'SINK' 19 255 [ '387' ] 1  0 0 9999 true 'sign-off' '' '']!Didcot Parkway --> 
(272) ['2S04DB' 'SINK' 21 255 [ '387' ] 1  0 0 9999 true 'sign-off' '' '']!Hayes and Harlington --> 
(273) ['1P92DB' 'SINK' 20 255 [ '387' ] 1  0 0 9999 true 'sign-off' '' '']!London Paddington --> 
(274) ['2S03DB' 'SINK' 22 255 [ '387' ] 1  0 0 9999 true 'sign-off' '' '']!London Paddington --> 
(275) ['2N23DA' 'SINK' 23 255 [ '387' ] 1  0 0 9999 true 'sign-off' '' '']!Didcot Parkway --> 
(276) ['2P12DA' 'SINK' 24 255 [ '387' ] 1  0 0 9999 true 'sign-off' '' '']!London Paddington --> 
(277) ['2P15DA' 'SINK' 25 255 [ '387' ] 1  0 0 9999 true 'sign-off' '' '']!London Paddington --> 
(278) ['1P06DA' 'SINK' 26 255 [ '387' ] 1  0 0 9999 true 'sign-off' '' '']!London Paddington --> 
(279) ['2R11DA' 'SINK' 28 255 [ '387' ] 1  0 0 9999 true 'sign-off' '' '']!Reading --> 
(280) ['2P13DA' 'SINK' 27 255 [ '387' ] 1  0 0 9999 true 'sign-off' '' '']!London Paddington --> 
(281) ['2S06DB' 'SINK' 29 255 [ '387' ] 1  0 0 9999 true 'sign-off' '' '']!Hayes and Harlington --> 
(282) ['2S05DB' 'SINK' 30 255 [ '387' ] 1  0 0 9999 true 'sign-off' '' '']!London Paddington --> 
(283) ['1P08DA' 'SINK' 31 255 [ '387' ] 1  0 0 9999 true 'sign-off' '' '']!London Paddington --> 
(284) ['2N24DA' 'SINK' 32 255 [ '387' ] 1  0 0 9999 true 'sign-off' '' '']!Didcot Parkway --> 
(285) ['1P05DA' 'SINK' 33 255 [ '387' ] 1  0 0 9999 true 'sign-off' '' '']!London Paddington --> 
(286) ['1R01DA' 'SINK' 34 255 [ '387' ] 1  0 0 9999 true 'sign-off' '' '']!Reading --> 
(287) ['2P16DA' 'SINK' 36 255 [ '387' ] 1  0 0 9999 true 'sign-off' '' '']!London Paddington --> 
(288) ['2R13DA' 'SINK' 35 255 [ '387' ] 1  0 0 9999 true 'sign-off' '' '']!Reading --> 
(289) ['2S08DB' 'SINK' 37 255 [ '387' ] 1  0 0 9999 true 'sign-off' '' '']!Hayes and Harlington --> 
(290) ['2S07DB' 'SINK' 38 255 [ '387' ] 1  0 0 9999 true 'sign-off' '' '']!London Paddington --> 
(291) ['1P11DA' 'SINK' 39 255 [ '387' ] 1  0 0 9999 true 'sign-off' '' '']!London Paddington --> 
(292) ['2N25DA' 'SINK' 40 255 [ '387' ] 1  0 0 9999 true 'sign-off' '' '']!Didcot Parkway --> 
(293) ['1P10DA' 'SINK' 41 255 [ '387' ] 1  0 0 9999 true 'sign-off' '' '']!London Paddington --> 
(294) ['2P17DA' 'SINK' 42 255 [ '387' ] 1  0 0 9999 true 'sign-off' '' '']!London Paddington --> 
(295) ['2P20DA' 'SINK' 43 255 [ '387' ] 1  0 0 9999 true 'sign-off' '' '']!London Paddington --> 
(296) ['2R15DA' 'SINK' 45 255 [ '387' ] 1  0 0 9999 true 'sign-off' '' '']!Reading --> 
(297) ['2P18DA' 'SINK' 44 255 [ '387' ] 1  0 0 9999 true 'sign-off' '' '']!London Paddington --> 
(298) ['1P09DA' 'SINK' 46 255 [ '387' ] 1  0 0 9999 true 'sign-off' '' '']!London Paddington --> 
(299) ['2S10DB' 'SINK' 47 255 [ '387' ] 1  0 0 9999 true 'sign-off' '' '']!Hayes and Harlington --> 
(300) ['2S09DB' 'SINK' 48 255 [ '387' ] 1  0 0 9999 true 'sign-off' '' '']!London Paddington --> 
(301) ['1P15DA' 'SINK' 49 255 [ '387' ] 1  0 0 9999 true 'sign-off' '' '']!London Paddington --> 
(302) ['2N26DA' 'SINK' 51 255 [ '387' ] 1  0 0 9999 true 'sign-off' '' '']!Didcot Parkway --> 
(303) ['1P81DA' 'SINK' 50 255 [ '387' ] 1  0 0 9999 true 'sign-off' '' '']!London Paddington --> 
(304) ['1R02DA' 'SINK' 52 255 [ '387' ] 1  0 0 9999 true 'sign-off' '' '']!Reading --> 
(305) ['1P17DA' 'SINK' 53 255 [ '387' ] 1  0 0 9999 true 'sign-off' '' '']!London Paddington --> 
(306) ['2R17DA' 'SINK' 55 255 [ '387' ] 1  0 0 9999 true 'sign-off' '' '']!Reading --> 
(307) ['2P21DA' 'SINK' 54 255 [ '387' ] 1  0 0 9999 true 'sign-off' '' '']!London Paddington --> 
(308) ['2S12DB' 'SINK' 56 255 [ '387' ] 1  0 0 9999 true 'sign-off' '' '']!Hayes and Harlington --> 
(309) ['2S11DB' 'SINK' 57 255 [ '387' ] 1  0 0 9999 true 'sign-off' '' '']!London Paddington --> 
(310) ['2N27DA' 'SINK' 58 255 [ '387' ] 1  0 0 9999 true 'sign-off' '' '']!Didcot Parkway --> 
(311) ['2R19DA' 'SINK' 59 255 [ '387' ] 1  0 0 9999 true 'sign-off' '' '']!Reading --> 
(312) ['2P22DA' 'SINK' 60 255 [ '387' ] 1  0 0 9999 true 'sign-off' '' '']!London Paddington --> 
(313) ['2P25DA' 'SINK' 61 255 [ '387' ] 1  0 0 9999 true 'sign-off' '' '']!London Paddington --> 
(314) ['2R20DA' 'SINK' 62 255 [ '387' ] 1  0 0 9999 true 'sign-off' '' '']!Reading --> 
(315) ['1P97DA' 'SINK' 63 255 [ '387' ] 1  0 0 9999 true 'sign-off' '' '']!London Paddington --> 
(316) ['2S14DB' 'SINK' 64 255 [ '387' ] 1  0 0 9999 true 'sign-off' '' '']!Hayes and Harlington --> 
(317) ['2S13DB' 'SINK' 65 255 [ '387' ] 1  0 0 9999 true 'sign-off' '' '']!London Paddington --> 
(318) ['2P23DA' 'SINK' 66 255 [ '387' ] 1  0 0 9999 true 'sign-off' '' '']!London Paddington --> 
(319) ['2N28DA' 'SINK' 67 255 [ '387' ] 1  0 0 9999 true 'sign-off' '' '']!Didcot Parkway --> 
(320) ['2P27DA' 'SINK' 68 255 [ '387' ] 1  0 0 9999 true 'sign-off' '' '']!London Paddington --> 
(321) ['2R22DA' 'SINK' 69 255 [ '387' ] 1  0 0 9999 true 'sign-off' '' '']!Reading --> 
(322) ['2S16DB' 'SINK' 70 255 [ '387' ] 1  0 0 9999 true 'sign-off' '' '']!Hayes and Harlington --> 
(323) ['2S15DB' 'SINK' 72 255 [ '387' ] 1  0 0 9999 true 'sign-off' '' '']!London Paddington --> 
(324) ['2P26DA' 'SINK' 71 255 [ '387' ] 1  0 0 9999 true 'sign-off' '' '']!London Paddington --> 
(325) ['1P20DA' 'SINK' 73 255 [ '387' ] 1  0 0 9999 true 'sign-off' '' '']!London Paddington --> 
(326) ['2N29DA' 'SINK' 74 255 [ '387' ] 1  0 0 9999 true 'sign-off' '' '']!Didcot Parkway --> 
(327) ['2P30DA' 'SINK' 75 255 [ '387' ] 1  0 0 9999 true 'sign-off' '' '']!London Paddington --> 
(328) ['2R24DA' 'SINK' 76 255 [ '387' ] 1  0 0 9999 true 'sign-off' '' '']!Reading --> 
(329) ['2S18DB' 'SINK' 77 255 [ '387' ] 1  0 0 9999 true 'sign-off' '' '']!Hayes and Harlington --> 
(330) ['2S17DB' 'SINK' 79 255 [ '387' ] 1  0 0 9999 true 'sign-off' '' '']!London Paddington --> 
(331) ['2P28DA' 'SINK' 78 255 [ '387' ] 1  0 0 9999 true 'sign-off' '' '']!London Paddington --> 
(332) ['2N30DA' 'SINK' 80 255 [ '387' ] 1  0 0 9999 true 'sign-off' '' '']!Didcot Parkway --> 
(333) ['2P32DA' 'SINK' 81 255 [ '387' ] 1  0 0 9999 true 'sign-off' '' '']!London Paddington --> 
(334) ['2R26DA' 'SINK' 82 255 [ '387' ] 1  0 0 9999 true 'sign-off' '' '']!Reading --> 
(335) ['2S20DB' 'SINK' 83 255 [ '387' ] 1  0 0 9999 true 'sign-off' '' '']!Hayes and Harlington --> 
(336) ['2S19DB' 'SINK' 85 255 [ '387' ] 1  0 0 9999 true 'sign-off' '' '']!London Paddington --> 
(337) ['2P31DA' 'SINK' 84 255 [ '387' ] 1  0 0 9999 true 'sign-off' '' '']!London Paddington --> 
(338) ['2N31DA' 'SINK' 86 255 [ '387' ] 1  0 0 9999 true 'sign-off' '' '']!Didcot Parkway --> 
(339) ['2P35DA' 'SINK' 87 255 [ '387' ] 1  0 0 9999 true 'sign-off' '' '']!London Paddington --> 
(340) ['2R28DA' 'SINK' 88 255 [ '387' ] 1  0 0 9999 true 'sign-off' '' '']!Reading --> 
(341) ['2S22DB' 'SINK' 89 255 [ '387' ] 1  0 0 9999 true 'sign-off' '' '']!Hayes and Harlington --> 
(342) ['2S21DB' 'SINK' 90 255 [ '387' ] 1  0 0 9999 true 'sign-off' '' '']!London Paddington --> 
(343) ['2P33DA' 'SINK' 91 255 [ '387' ] 1  0 0 9999 true 'sign-off' '' '']!London Paddington --> 
(344) ['2N32DA' 'SINK' 92 255 [ '387' ] 1  0 0 9999 true 'sign-off' '' '']!Didcot Parkway --> 
(345) ['2P37DA' 'SINK' 93 255 [ '387' ] 1  0 0 9999 true 'sign-off' '' '']!London Paddington --> 
(346) ['2R30DA' 'SINK' 94 255 [ '387' ] 1  0 0 9999 true 'sign-off' '' '']!Reading --> 
(347) ['2S24DB' 'SINK' 95 255 [ '387' ] 1  0 0 9999 true 'sign-off' '' '']!Hayes and Harlington --> 
(348) ['2S23DB' 'SINK' 97 255 [ '387' ] 1  0 0 9999 true 'sign-off' '' '']!London Paddington --> 
(349) ['2P36DA' 'SINK' 96 255 [ '387' ] 1  0 0 9999 true 'sign-off' '' '']!London Paddington --> 
(350) ['2N33DA' 'SINK' 98 255 [ '387' ] 1  0 0 9999 true 'sign-off' '' '']!Didcot Parkway --> 
(351) ['2P40DA' 'SINK' 99 255 [ '387' ] 1  0 0 9999 true 'sign-off' '' '']!London Paddington --> 
(352) ['2R32DA' 'SINK' 100 255 [ '387' ] 1  0 0 9999 true 'sign-off' '' '']!Reading --> 
(353) ['2S26DB' 'SINK' 101 255 [ '387' ] 1  0 0 9999 true 'sign-off' '' '']!Hayes and Harlington --> 
(354) ['2S25DB' 'SINK' 103 255 [ '387' ] 1  0 0 9999 true 'sign-off' '' '']!London Paddington --> 
(355) ['2P38DA' 'SINK' 102 255 [ '387' ] 1  0 0 9999 true 'sign-off' '' '']!London Paddington --> 
(356) ['2N34DA' 'SINK' 104 255 [ '387' ] 1  0 0 9999 true 'sign-off' '' '']!Didcot Parkway --> 
(357) ['2P42DA' 'SINK' 105 255 [ '387' ] 1  0 0 9999 true 'sign-off' '' '']!London Paddington --> 
(358) ['2R34DA' 'SINK' 106 255 [ '387' ] 1  0 0 9999 true 'sign-off' '' '']!Reading --> 
(359) ['2S28DB' 'SINK' 107 255 [ '387' ] 1  0 0 9999 true 'sign-off' '' '']!Hayes and Harlington --> 
(360) ['2S27DB' 'SINK' 109 255 [ '387' ] 1  0 0 9999 true 'sign-off' '' '']!London Paddington --> 
(361) ['2P41DA' 'SINK' 108 255 [ '387' ] 1  0 0 9999 true 'sign-off' '' '']!London Paddington --> 
(362) ['2N35DA' 'SINK' 110 255 [ '387' ] 1  0 0 9999 true 'sign-off' '' '']!Didcot Parkway --> 
(363) ['2P45DA' 'SINK' 111 255 [ '387' ] 1  0 0 9999 true 'sign-off' '' '']!London Paddington --> 
(364) ['2R36DA' 'SINK' 112 255 [ '387' ] 1  0 0 9999 true 'sign-off' '' '']!Reading --> 
(365) ['2S30DB' 'SINK' 113 255 [ '387' ] 1  0 0 9999 true 'sign-off' '' '']!Hayes and Harlington --> 
(366) ['2S29DB' 'SINK' 115 255 [ '387' ] 1  0 0 9999 true 'sign-off' '' '']!London Paddington --> 
(367) ['2P43DA' 'SINK' 114 255 [ '387' ] 1  0 0 9999 true 'sign-off' '' '']!London Paddington --> 
(368) ['2N36DA' 'SINK' 116 255 [ '387' ] 1  0 0 9999 true 'sign-off' '' '']!Didcot Parkway --> 
(369) ['2P47DA' 'SINK' 117 255 [ '387' ] 1  0 0 9999 true 'sign-off' '' '']!London Paddington --> 
(370) ['2R38DA' 'SINK' 118 255 [ '387' ] 1  0 0 9999 true 'sign-off' '' '']!Reading --> 
(371) ['2S32DB' 'SINK' 119 255 [ '387' ] 1  0 0 9999 true 'sign-off' '' '']!Hayes and Harlington --> 
(372) ['2S31DB' 'SINK' 121 255 [ '387' ] 1  0 0 9999 true 'sign-off' '' '']!London Paddington --> 
(373) ['2P46DA' 'SINK' 120 255 [ '387' ] 1  0 0 9999 true 'sign-off' '' '']!London Paddington --> 
(374) ['2N37DA' 'SINK' 122 255 [ '387' ] 1  0 0 9999 true 'sign-off' '' '']!Didcot Parkway --> 
(375) ['2P50DA' 'SINK' 123 255 [ '387' ] 1  0 0 9999 true 'sign-off' '' '']!London Paddington --> 
(376) ['2R40DA' 'SINK' 124 255 [ '387' ] 1  0 0 9999 true 'sign-off' '' '']!Reading --> 
(377) ['2S34DB' 'SINK' 125 255 [ '387' ] 1  0 0 9999 true 'sign-off' '' '']!Hayes and Harlington --> 
(378) ['2S33DB' 'SINK' 127 255 [ '387' ] 1  0 0 9999 true 'sign-off' '' '']!London Paddington --> 
(379) ['2P48DA' 'SINK' 126 255 [ '387' ] 1  0 0 9999 true 'sign-off' '' '']!London Paddington --> 
(380) ['2N38DA' 'SINK' 128 255 [ '387' ] 1  0 0 9999 true 'sign-off' '' '']!Didcot Parkway --> 
(381) ['2P52DA' 'SINK' 129 255 [ '387' ] 1  0 0 9999 true 'sign-off' '' '']!London Paddington --> 
(382) ['2R42DA' 'SINK' 130 255 [ '387' ] 1  0 0 9999 true 'sign-off' '' '']!Reading --> 
(383) ['2S36DB' 'SINK' 131 255 [ '387' ] 1  0 0 9999 true 'sign-off' '' '']!Hayes and Harlington --> 
(384) ['2S35DB' 'SINK' 133 255 [ '387' ] 1  0 0 9999 true 'sign-off' '' '']!London Paddington --> 
(385) ['2P51DA' 'SINK' 132 255 [ '387' ] 1  0 0 9999 true 'sign-off' '' '']!London Paddington --> 
(386) ['2N39DA' 'SINK' 134 255 [ '387' ] 1  0 0 9999 true 'sign-off' '' '']!Didcot Parkway --> 
(387) ['2P55DA' 'SINK' 135 255 [ '387' ] 1  0 0 9999 true 'sign-off' '' '']!London Paddington --> 
(388) ['2R44DA' 'SINK' 136 255 [ '387' ] 1  0 0 9999 true 'sign-off' '' '']!Reading --> 
(389) ['2S38DB' 'SINK' 137 255 [ '387' ] 1  0 0 9999 true 'sign-off' '' '']!Hayes and Harlington --> 
(390) ['2S37DB' 'SINK' 139 255 [ '387' ] 1  0 0 9999 true 'sign-off' '' '']!London Paddington --> 
(391) ['2P53DA' 'SINK' 138 255 [ '387' ] 1  0 0 9999 true 'sign-off' '' '']!London Paddington --> 
(392) ['2N40DA' 'SINK' 140 255 [ '387' ] 1  0 0 9999 true 'sign-off' '' '']!Didcot Parkway --> 
(393) ['2P57DA' 'SINK' 141 255 [ '387' ] 1  0 0 9999 true 'sign-off' '' '']!London Paddington --> 
(394) ['2R46DA' 'SINK' 142 255 [ '387' ] 1  0 0 9999 true 'sign-off' '' '']!Reading --> 
(395) ['2S40DB' 'SINK' 143 255 [ '387' ] 1  0 0 9999 true 'sign-off' '' '']!Hayes and Harlington --> 
(396) ['2S39DB' 'SINK' 145 255 [ '387' ] 1  0 0 9999 true 'sign-off' '' '']!London Paddington --> 
(397) ['2P56DA' 'SINK' 144 255 [ '387' ] 1  0 0 9999 true 'sign-off' '' '']!London Paddington --> 
(398) ['2N41DA' 'SINK' 146 255 [ '387' ] 1  0 0 9999 true 'sign-off' '' '']!Didcot Parkway --> 
(399) ['2P60DA' 'SINK' 147 255 [ '387' ] 1  0 0 9999 true 'sign-off' '' '']!London Paddington --> 
(400) ['2R48DA' 'SINK' 148 255 [ '387' ] 1  0 0 9999 true 'sign-off' '' '']!Reading --> 
(401) ['2S42DB' 'SINK' 149 255 [ '387' ] 1  0 0 9999 true 'sign-off' '' '']!Hayes and Harlington --> 
(402) ['2S41DB' 'SINK' 151 255 [ '387' ] 1  0 0 9999 true 'sign-off' '' '']!London Paddington --> 
(403) ['2P58DA' 'SINK' 150 255 [ '387' ] 1  0 0 9999 true 'sign-off' '' '']!London Paddington --> 
(404) ['2N42DA' 'SINK' 152 255 [ '387' ] 1  0 0 9999 true 'sign-off' '' '']!Didcot Parkway --> 
(405) ['1P35DA' 'SINK' 153 255 [ '387' ] 1  0 0 9999 true 'sign-off' '' '']!London Paddington --> 
(406) ['1N40DA' 'SINK' 154 255 [ '387' ] 1  0 0 9999 true 'sign-off' '' '']!Maidenhead --> 
(407) ['2R50DA' 'SINK' 155 255 [ '387' ] 1  0 0 9999 true 'sign-off' '' '']!Reading --> 
(408) ['2S44DB' 'SINK' 156 255 [ '387' ] 1  0 0 9999 true 'sign-off' '' '']!Hayes and Harlington --> 
(409) ['2S43DB' 'SINK' 158 255 [ '387' ] 1  0 0 9999 true 'sign-off' '' '']!London Paddington --> 
(410) ['2P61DA' 'SINK' 157 255 [ '387' ] 1  0 0 9999 true 'sign-off' '' '']!London Paddington --> 
(411) ['2R51DA' 'SINK' 159 255 [ '387' ] 1  0 0 9999 true 'sign-off' '' '']!Reading --> 
(412) ['2P62DA' 'SINK' 160 255 [ '387' ] 1  0 0 9999 true 'sign-off' '' '']!London Paddington --> 
(413) ['2P65DA' 'SINK' 161 255 [ '387' ] 1  0 0 9999 true 'sign-off' '' '']!London Paddington --> 
(414) ['1D90DA' 'SINK' 162 255 [ '387' ] 1  0 0 9999 true 'sign-off' '' '']!Didcot Parkway --> 
(415) ['2R52DA' 'SINK' 163 255 [ '387' ] 1  0 0 9999 true 'sign-off' '' '']!Reading --> 
(416) ['2S46DB' 'SINK' 164 255 [ '387' ] 1  0 0 9999 true 'sign-off' '' '']!Hayes and Harlington --> 
(417) ['2P63DA' 'SINK' 166 255 [ '387' ] 1  0 0 9999 true 'sign-off' '' '']!London Paddington --> 
(418) ['2S45DB' 'SINK' 165 255 [ '387' ] 1  0 0 9999 true 'sign-off' '' '']!London Paddington --> 
(419) ['1D91DA' 'SINK' 167 255 [ '387' ] 1  0 0 9999 true 'sign-off' '' '']!Didcot Parkway --> 
(420) ['1N92DA' 'SINK' 168 255 [ '387' ] 1  0 0 9999 true 'sign-off' '' '']!Maidenhead --> 
(421) ['2R53DA' 'SINK' 169 255 [ '387' ] 1  0 0 9999 true 'sign-off' '' '']!Reading --> 
(422) ['1P38DA' 'SINK' 170 255 [ '387' ] 1  0 0 9999 true 'sign-off' '' '']!London Paddington --> 
(423) ['2R55DA' 'SINK' 171 255 [ '387' ] 1  0 0 9999 true 'sign-off' '' '']!Reading --> 
(424) ['2S48DB' 'SINK' 172 255 [ '387' ] 1  0 0 9999 true 'sign-off' '' '']!Hayes and Harlington --> 
(425) ['2S47DB' 'SINK' 174 255 [ '387' ] 1  0 0 9999 true 'sign-off' '' '']!London Paddington --> 
(426) ['2P66DA' 'SINK' 173 255 [ '387' ] 1  0 0 9999 true 'sign-off' '' '']!London Paddington --> 
(427) ['1N93DA' 'SINK' 175 255 [ '387' ] 1  0 0 9999 true 'sign-off' '' '']!Maidenhead --> 
(428) ['2R58DA' 'SINK' 176 255 [ '387' ] 1  0 0 9999 true 'sign-off' '' '']!Reading --> 
(429) ['2P70DA' 'SINK' 177 255 [ '387' ] 1  0 0 9999 true 'sign-off' '' '']!London Paddington --> 
(430) ['2P67DA' 'SINK' 178 255 [ '387' ] 1  0 0 9999 true 'sign-off' '' '']!London Paddington --> 
(431) ['2R59DA' 'SINK' 180 255 [ '387' ] 1  0 0 9999 true 'sign-off' '' '']!Reading --> 
(432) ['2P68DA' 'SINK' 179 255 [ '387' ] 1  0 0 9999 true 'sign-off' '' '']!London Paddington --> 
(433) ['2S50DB' 'SINK' 181 255 [ '387' ] 1  0 0 9999 true 'sign-off' '' '']!Hayes and Harlington --> 
(434) ['2S49DB' 'SINK' 182 255 [ '387' ] 1  0 0 9999 true 'sign-off' '' '']!London Paddington --> 
(435) ['1D93DA(1)' 'SINK' 183 255 [ '387' ] 1  0 0 9999 true 'sign-off' '' '']!Reading --> 
(436) ['2P69DA' 'SINK' 184 255 [ '387' ] 1  0 0 9999 true 'sign-off' '' '']!London Paddington --> 
(437) ['2R60DA' 'SINK' 185 255 [ '387' ] 1  0 0 9999 true 'sign-off' '' '']!Reading --> 
(438) ['2P72DA' 'SINK' 186 255 [ '387' ] 1  0 0 9999 true 'sign-off' '' '']!London Paddington --> 
(439) ['2R61DA' 'SINK' 188 255 [ '387' ] 1  0 0 9999 true 'sign-off' '' '']!Reading --> 
(440) ['2P74DA' 'SINK' 187 255 [ '387' ] 1  0 0 9999 true 'sign-off' '' '']!London Paddington --> 
(441) ['2S52DB' 'SINK' 189 255 [ '387' ] 1  0 0 9999 true 'sign-off' '' '']!Hayes and Harlington --> 
(442) ['2S51DB' 'SINK' 191 255 [ '387' ] 1  0 0 9999 true 'sign-off' '' '']!London Paddington --> 
(443) ['2P71DA' 'SINK' 190 255 [ '387' ] 1  0 0 9999 true 'sign-off' '' '']!London Paddington --> 
(444) ['1D94DA' 'SINK' 192 255 [ '387' ] 1  0 0 9999 true 'sign-off' '' '']!Didcot Parkway --> 
(445) ['1D93DA(2)' 'SINK' 193 255 [ '387' ] 1  0 0 9999 true 'sign-off' '' '']!Didcot Parkway --> 
(446) ['2R62DA' 'SINK' 194 255 [ '387' ] 1  0 0 9999 true 'sign-off' '' '']!Reading --> 
(447) ['1R05DA' 'SINK' 195 255 [ '387' ] 1  0 0 9999 true 'sign-off' '' '']!Reading --> 
(448) ['2P75DA' 'SINK' 196 255 [ '387' ] 1  0 0 9999 true 'sign-off' '' '']!London Paddington --> 
(449) ['2R63DA' 'SINK' 197 255 [ '387' ] 1  0 0 9999 true 'sign-off' '' '']!Reading --> 
(450) ['2S54DB' 'SINK' 198 255 [ '387' ] 1  0 0 9999 true 'sign-off' '' '']!Hayes and Harlington --> 
(451) ['2S53DB' 'SINK' 200 255 [ '387' ] 1  0 0 9999 true 'sign-off' '' '']!London Paddington --> 
(452) ['1D95DA' 'SINK' 199 255 [ '387' ] 1  0 0 9999 true 'sign-off' '' '']!Didcot Parkway --> 
(453) ['2P73DA' 'SINK' 201 255 [ '387' ] 1  0 0 9999 true 'sign-off' '' '']!London Paddington --> 
(454) ['1N96DA' 'SINK' 202 255 [ '387' ] 1  0 0 9999 true 'sign-off' '' '']!Maidenhead --> 
(455) ['2R64DA' 'SINK' 203 255 [ '387' ] 1  0 0 9999 true 'sign-off' '' '']!Reading --> 
(456) ['2P77DA(1)' 'SINK' 204 255 [ '387' ] 1  0 0 9999 true 'sign-off' '' '']!Reading --> 
(457) ['2R65DA' 'SINK' 205 255 [ '387' ] 1  0 0 9999 true 'sign-off' '' '']!Reading --> 
(458) ['2S56DB' 'SINK' 206 255 [ '387' ] 1  0 0 9999 true 'sign-off' '' '']!Hayes and Harlington --> 
(459) ['2S55DB' 'SINK' 208 255 [ '387' ] 1  0 0 9999 true 'sign-off' '' '']!London Paddington --> 
(460) ['1D97DA' 'SINK' 207 255 [ '387' ] 1  0 0 9999 true 'sign-off' '' '']!Didcot Parkway --> 
(461) ['2P76DA' 'SINK' 209 255 [ '387' ] 1  0 0 9999 true 'sign-off' '' '']!London Paddington --> 
(462) ['2N43DA' 'SINK' 210 255 [ '387' ] 1  0 0 9999 true 'sign-off' '' '']!Didcot Parkway --> 
(463) ['2P77DA(2)' 'SINK' 211 255 [ '387' ] 1  0 0 9999 true 'sign-off' '' '']!London Paddington --> 
(464) ['2P80DA' 'SINK' 212 255 [ '387' ] 1  0 0 9999 true 'sign-off' '' '']!London Paddington --> 
(465) ['1D98DA' 'SINK' 213 255 [ '387' ] 1  0 0 9999 true 'sign-off' '' '']!Didcot Parkway --> 
(466) ['2R67DA' 'SINK' 214 255 [ '387' ] 1  0 0 9999 true 'sign-off' '' '']!Reading --> 
(467) ['2S58DB' 'SINK' 215 255 [ '387' ] 1  0 0 9999 true 'sign-off' '' '']!Hayes and Harlington --> 
(468) ['2S57DB' 'SINK' 216 255 [ '387' ] 1  0 0 9999 true 'sign-off' '' '']!London Paddington --> 
(469) ['2P78DA' 'SINK' 217 255 [ '387' ] 1  0 0 9999 true 'sign-off' '' '']!London Paddington --> 
(470) ['2R68DA' 'SINK' 218 255 [ '387' ] 1  0 0 9999 true 'sign-off' '' '']!Reading --> 
(471) ['2P82DA' 'SINK' 219 255 [ '387' ] 1  0 0 9999 true 'sign-off' '' '']!London Paddington --> 
(472) ['2R69DA' 'SINK' 220 255 [ '387' ] 1  0 0 9999 true 'sign-off' '' '']!Reading --> 
(473) ['2S60DB' 'SINK' 221 255 [ '387' ] 1  0 0 9999 true 'sign-off' '' '']!Hayes and Harlington --> 
(474) ['2S59DB' 'SINK' 223 255 [ '387' ] 1  0 0 9999 true 'sign-off' '' '']!London Paddington --> 
(475) ['1R04DA' 'SINK' 222 255 [ '387' ] 1  0 0 9999 true 'sign-off' '' '']!Didcot Parkway --> 
(476) ['2P81DA' 'SINK' 224 255 [ '387' ] 1  0 0 9999 true 'sign-off' '' '']!London Paddington --> 
(477) ['2N45DA' 'SINK' 225 255 [ '387' ] 1  0 0 9999 true 'sign-off' '' '']!Didcot Parkway --> 
(478) ['2P85DA(1)' 'SINK' 226 255 [ '387' ] 1  0 0 9999 true 'sign-off' '' '']!Reading --> 
(479) ['2R71DA' 'SINK' 227 255 [ '387' ] 1  0 0 9999 true 'sign-off' '' '']!Reading --> 
(480) ['2S62DB' 'SINK' 228 255 [ '387' ] 1  0 0 9999 true 'sign-off' '' '']!Hayes and Harlington --> 
(481) ['2S61DB' 'SINK' 230 255 [ '387' ] 1  0 0 9999 true 'sign-off' '' '']!London Paddington --> 
(482) ['2P83DA' 'SINK' 229 255 [ '387' ] 1  0 0 9999 true 'sign-off' '' '']!London Paddington --> 
(483) ['2N46DA' 'SINK' 231 255 [ '387' ] 1  0 0 9999 true 'sign-off' '' '']!Didcot Parkway --> 
(484) ['2P85DA(2)' 'SINK' 232 255 [ '387' ] 1  0 0 9999 true 'sign-off' '' '']!London Paddington --> 
(485) ['2R73DA' 'SINK' 233 255 [ '387' ] 1  0 0 9999 true 'sign-off' '' '']!Reading --> 
(486) ['2S64DB' 'SINK' 234 255 [ '387' ] 1  0 0 9999 true 'sign-off' '' '']!Hayes and Harlington --> 
(487) ['2S63DB' 'SINK' 235 255 [ '387' ] 1  0 0 9999 true 'sign-off' '' '']!London Paddington --> 
(488) ['2N47DA' 'SINK' 236 255 [ '387' ] 1  0 0 9999 true 'sign-off' '' '']!Didcot Parkway --> 
(489) ['2P86DA' 'SINK' 237 255 [ '387' ] 1  0 0 9999 true 'sign-off' '' '']!London Paddington --> 
(490) ['2R75DA' 'SINK' 238 255 [ '387' ] 1  0 0 9999 true 'sign-off' '' '']!Reading --> 
(491) ['2S65DB' 'SINK' 239 255 [ '387' ] 1  0 0 9999 true 'sign-off' '' '']!London Paddington --> 
(492) ['2N48DA' 'SINK' 240 255 [ '387' ] 1  0 0 9999 true 'sign-off' '' '']!Didcot Parkway --> 
(493) ['2P88DA' 'SINK' 241 255 [ '387' ] 1  0 0 9999 true 'sign-off' '' '']!London Paddington --> 
(494) ['2L89DA' 'SINK' 242 255 [ '387' ] 1  0 0 9999 true 'sign-off' '' '']!Reading --> 
(495) ['2P90DA' 'SINK' 243 255 [ '387' ] 1  0 0 9999 true 'sign-off' '' '']!London Paddington --> 
(496) ['2R79DA' 'SINK' 244 255 [ '387' ] 1  0 0 9999 true 'sign-off' '' '']!Reading --> 
(497) ['2R80DA' 'SINK' 245 255 [ '387' ] 1  0 0 9999 true 'sign-off' '' '']!Reading --> 
(498) ['2R81DA' 'SINK' 246 255 [ '387' ] 1  0 0 9999 true 'sign-off' '' '']!Reading --> 
(499) ['2P93DA' 'SINK' 247 255 [ '387' ] 1  0 0 9999 true 'sign-off' '' '']!London Paddington --> 
(500) ['2L97DA' 'SINK' 248 255 [ '387' ] 1  0 0 9999 true 'sign-off' '' '']!Reading --> 
(501) ['2N49DA' 'SINK' 249 255 [ '387' ] 1  0 0 9999 true 'sign-off' '' '']!Didcot Parkway --> 
(502) ['2R84DA' 'SINK' 250 255 [ '387' ] 1  0 0 9999 true 'sign-off' '' '']!Reading --> 
(503) ['2P95DA' 'SINK' 251 255 [ '387' ] 1  0 0 9999 true 'sign-off' '' '']!London Paddington --> 
(504) ['2R86DA' 'SINK' 252 255 [ '387' ] 1  0 0 9999 true 'sign-off' '' '']!Reading --> 
(505) ['2P01DA' 'SINK' 253 255 [ '387' ] 1  0 0 9999 true 'sign-off' '' '']!London Paddington --> 
(506) ['2R01DA' 'SINK' 254 255 [ '387' ] 1  0 0 9999 true 'sign-off' '' '']!Reading --> 
(507) ['2P02DA' '2R05DA' 2 3 [ '387' ] 1.00824  0 0 19 false 'trip-sameloc' '' '']!London Paddington --> London Paddington
(508) ['2R05DA' '2P04DA' 3 5 [ '387' ] 1.00329  0 0 12 false 'trip-sameloc' '' '']!Reading --> Reading
(509) ['2P04DA' '2N21DA' 5 15 [ '387' ] 1.00146  0 0 8 false 'trip-sameloc' '' '']!London Paddington --> London Paddington
(510) ['2N21DA' '1P10DA' 15 41 [ '387' ] 1.00228  0 0 10 false 'trip-sameloc' '' '']!Didcot Parkway --> Didcot Parkway
(511) ['1P10DA' '2R19DA' 41 59 [ '387' ] 1.00185  0 0 9 false 'trip-sameloc' '' '']!London Paddington --> London Paddington
(512) ['2R19DA' '2P28DA' 59 78 [ '387' ] 1.01208  0 0 23 false 'trip-sameloc' '' '']!Reading --> Reading
(513) ['2P28DA' '2N32DA' 78 92 [ '387' ] 1.00276  0 0 11 false 'trip-sameloc' '' '']!London Paddington --> London Paddington
(514) ['2N32DA' '2P45DA' 92 111 [ '387' ] 1.00447  0 0 14 false 'trip-sameloc' '' '']!Didcot Parkway --> Didcot Parkway
(515) ['2P45DA' '2R42DA' 111 130 [ '387' ] 1.00276  0 0 11 false 'trip-sameloc' '' '']!London Paddington --> London Paddington
(516) ['2R42DA' '2P56DA' 130 144 [ '387' ] 1.00146  0 0 8 false 'trip-sameloc' '' '']!Reading --> Reading
(517) ['2P56DA' '2R51DA' 144 159 [ '387' ] 1.00329  0 0 12 false 'trip-sameloc' '' '']!London Paddington --> London Paddington
(518) ['2R51DA' '2P67DA' 159 178 [ '387' ] 1.00112  0 0 7 false 'trip-sameloc' '' '']!Reading --> Reading
(519) ['2P67DA' '2R63DA' 178 197 [ '387' ] 1.00112  0 0 7 false 'trip-sameloc' '' '']!London Paddington --> London Paddington
(520) ['2R63DA' '2P78DA' 197 217 [ '387' ] 1.00185  0 0 9 false 'trip-sameloc' '' '']!Reading --> Reading
(521) ['2P78DA' '2N46DA' 217 231 [ '387' ] 1.00329  0 0 12 false 'trip-sameloc' '' '']!London Paddington --> London Paddington
(522) ['2P78DA' '2R73DA' 217 233 [ '387' ] 1.01664  0 0 27 false 'trip-sameloc' '' '']!London Paddington --> London Paddington
(523) ['2R73DA' '2P90DA' 233 243 [ '387' ] 1.00112  0 0 7 false 'trip-sameloc' '' '']!Reading --> Reading
(524) ['2P90DA' '2N49DA' 243 249 [ '387' ] 1.00276  0 0 11 false 'trip-sameloc' '' '']!London Paddington --> London Paddington
(525) ['2P05DA' '2N22DA' 6 19 [ '387' ] 1.00276  0 0 11 false 'trip-sameloc' '' '']!London Paddington --> London Paddington
(526) ['2N22DA' '2P20DA' 19 43 [ '387' ] 1.00146  0 0 8 false 'trip-sameloc' '' '']!Didcot Parkway --> Didcot Parkway
(527) ['2P20DA' '2R22DA' 43 69 [ '387' ] 1.00514  0 0 15 false 'trip-sameloc' '' '']!London Paddington --> London Paddington
(528) ['2R22DA' '2P31DA' 69 84 [ '387' ] 1.00228  0 0 10 false 'trip-sameloc' '' '']!Reading --> Reading
(529) ['2P31DA' '2N33DA' 84 98 [ '387' ] 1.00276  0 0 11 false 'trip-sameloc' '' '']!London Paddington --> London Paddington
(530) ['2N33DA' '2P47DA' 98 117 [ '387' ] 1.00386  0 0 13 false 'trip-sameloc' '' '']!Didcot Parkway --> Didcot Parkway
(531) ['2P47DA' '2R44DA' 117 136 [ '387' ] 1.00228  0 0 10 false 'trip-sameloc' '' '']!London Paddington --> London Paddington
(532) ['2R44DA' '2P58DA' 136 150 [ '387' ] 1.00146  0 0 8 false 'trip-sameloc' '' '']!Reading --> Reading
(533) ['2P58DA' '1N92DA' 150 168 [ '387' ] 1.00228  0 0 10 false 'trip-sameloc' '' '']!London Paddington --> London Paddington
(534) ['1N92DA' '2P68DA' 168 179 [ '387' ] 1.00057  0 0 5 false 'trip-sameloc' '' '']!Maidenhead --> Maidenhead
(535) ['2P68DA' '1R05DA' 179 195 [ '387' ] 1.00146  0 0 8 false 'trip-sameloc' '' '']!London Paddington --> London Paddington
(536) ['1R05DA' '2P81DA' 195 224 [ '387' ] 1.04831  0 0 46 false 'trip-sameloc' '' '']!Reading --> Reading
(537) ['2P81DA' '2N47DA' 224 236 [ '387' ] 1.00276  0 0 11 false 'trip-sameloc' '' '']!London Paddington --> London Paddington
(538) ['2N47DA' '2L97DA' 236 248 [ '387' ] 1.01315  0 0 24 false 'trip-sameloc' '' '']!Didcot Parkway --> Didcot Parkway
(539) ['2L97DA' '2P95DA' 248 251 [ '387' ] 1.0179  0 0 28 false 'trip-sameloc' '' '']!Reading --> Reading
(540) ['2P95DA' '2R01DA' 251 254 [ '387' ] 1.01105  0 0 22 false 'trip-sameloc' '' '']!London Paddington --> London Paddington
(541) ['2P07DA' '2R11DA' 10 28 [ '387' ] 1.00276  0 0 11 false 'trip-sameloc' '' '']!London Paddington --> London Paddington
(542) ['2R11DA' '1P81DA' 28 50 [ '387' ] 1.00329  0 0 12 false 'trip-sameloc' '' '']!Reading --> Reading
(543) ['1P81DA' '2R20DA' 50 62 [ '387' ] 1.00329  0 0 12 false 'trip-sameloc' '' '']!London Paddington --> London Paddington
(544) ['2R20DA' '2P31DA' 62 84 [ '387' ] 1.03473  0 0 39 false 'trip-sameloc' '' '']!Reading --> Reading
(545) ['2R09DA' '1P05DA' 11 33 [ '387' ] 1.00514  0 0 15 false 'trip-sameloc' '' '']!Reading --> Reading
(546) ['1P05DA' '2R15DA' 33 45 [ '387' ] 1.00112  0 0 7 false 'trip-sameloc' '' '']!London Paddington --> London Paddington
(547) ['2R15DA' '2P23DA' 45 66 [ '387' ] 1.00185  0 0 9 false 'trip-sameloc' '' '']!Reading --> Reading
(548) ['2P23DA' '2N30DA' 66 80 [ '387' ] 1.00276  0 0 11 false 'trip-sameloc' '' '']!London Paddington --> London Paddington
(549) ['2N30DA' '2P40DA' 80 99 [ '387' ] 1.00276  0 0 11 false 'trip-sameloc' '' '']!Didcot Parkway --> Didcot Parkway
(550) ['2P40DA' '2R38DA' 99 118 [ '387' ] 1.00228  0 0 10 false 'trip-sameloc' '' '']!London Paddington --> London Paddington
(551) ['2R38DA' '2P51DA' 118 132 [ '387' ] 1.00112  0 0 7 false 'trip-sameloc' '' '']!Reading --> Reading
(552) ['2P51DA' '2N41DA' 132 146 [ '387' ] 1.00276  0 0 11 false 'trip-sameloc' '' '']!London Paddington --> London Paddington
(553) ['2N41DA' '1P38DA' 146 170 [ '387' ] 1.00228  0 0 10 false 'trip-sameloc' '' '']!Didcot Parkway --> Didcot Parkway
(554) ['1P38DA' '1D94DA' 170 192 [ '387' ] 1.00185  0 0 9 false 'trip-sameloc' '' '']!London Paddington --> London Paddington
(555) ['1D94DA' '2P82DA' 192 219 [ '387' ] 1.05043  0 0 47 false 'trip-sameloc' '' '']!Didcot Parkway --> Didcot Parkway
(556) ['2P82DA' '2R75DA' 219 238 [ '387' ] 1.00228  0 0 10 false 'trip-sameloc' '' '']!London Paddington --> London Paddington
(557) ['2R75DA' '2P93DA' 238 247 [ '387' ] 1.02797  0 0 35 false 'trip-sameloc' '' '']!Reading --> Reading
(558) ['2P93DA' '2R86DA' 247 252 [ '387' ] 1.00913  0 0 20 false 'trip-sameloc' '' '']!London Paddington --> London Paddington
(559) ['2S02DB' '2S03DB' 12 22 [ '387' ] 1.00329  0 0 12 false 'trip-sameloc' '' '']!Hayes and Harlington --> Hayes and Harlington
(560) ['2S03DB' '2S06DB' 22 29 [ '387' ] 1.00057  0 0 5 false 'trip-sameloc' '' '']!London Paddington --> London Paddington
(561) ['2S06DB' '2S07DB' 29 38 [ '387' ] 1.00329  0 0 12 false 'trip-sameloc' '' '']!Hayes and Harlington --> Hayes and Harlington
(562) ['2S07DB' '2S10DB' 38 47 [ '387' ] 1.00057  0 0 5 false 'trip-sameloc' '' '']!London Paddington --> London Paddington
(563) ['2S10DB' '2S11DB' 47 57 [ '387' ] 1.00329  0 0 12 false 'trip-sameloc' '' '']!Hayes and Harlington --> Hayes and Harlington
(564) ['2S11DB' '2S14DB' 57 64 [ '387' ] 1.00057  0 0 5 false 'trip-sameloc' '' '']!London Paddington --> London Paddington
(565) ['2S14DB' '2S15DB' 64 72 [ '387' ] 1.00329  0 0 12 false 'trip-sameloc' '' '']!Hayes and Harlington --> Hayes and Harlington
(566) ['2S15DB' '2S18DB' 72 77 [ '387' ] 1.00057  0 0 5 false 'trip-sameloc' '' '']!London Paddington --> London Paddington
(567) ['2S18DB' '2S19DB' 77 85 [ '387' ] 1.00329  0 0 12 false 'trip-sameloc' '' '']!Hayes and Harlington --> Hayes and Harlington
(568) ['2S19DB' '2S22DB' 85 89 [ '387' ] 1.00057  0 0 5 false 'trip-sameloc' '' '']!London Paddington --> London Paddington
(569) ['2S22DB' '2S23DB' 89 97 [ '387' ] 1.00386  0 0 13 false 'trip-sameloc' '' '']!Hayes and Harlington --> Hayes and Harlington
(570) ['2S23DB' '2S26DB' 97 101 [ '387' ] 1.00057  0 0 5 false 'trip-sameloc' '' '']!London Paddington --> London Paddington
(571) ['2S26DB' '2S27DB' 101 109 [ '387' ] 1.00329  0 0 12 false 'trip-sameloc' '' '']!Hayes and Harlington --> Hayes and Harlington
(572) ['2S27DB' '2S30DB' 109 113 [ '387' ] 1.00057  0 0 5 false 'trip-sameloc' '' '']!London Paddington --> London Paddington
(573) ['2S30DB' '2S31DB' 113 121 [ '387' ] 1.00329  0 0 12 false 'trip-sameloc' '' '']!Hayes and Harlington --> Hayes and Harlington
(574) ['2S31DB' '2S34DB' 121 125 [ '387' ] 1.00057  0 0 5 false 'trip-sameloc' '' '']!London Paddington --> London Paddington
(575) ['2S34DB' '2S35DB' 125 133 [ '387' ] 1.00329  0 0 12 false 'trip-sameloc' '' '']!Hayes and Harlington --> Hayes and Harlington
(576) ['2S35DB' '2S38DB' 133 137 [ '387' ] 1.00057  0 0 5 false 'trip-sameloc' '' '']!London Paddington --> London Paddington
(577) ['2S38DB' '2S39DB' 137 145 [ '387' ] 1.00329  0 0 12 false 'trip-sameloc' '' '']!Hayes and Harlington --> Hayes and Harlington
(578) ['2S39DB' '2S42DB' 145 149 [ '387' ] 1.00057  0 0 5 false 'trip-sameloc' '' '']!London Paddington --> London Paddington
(579) ['2S42DB' '2S43DB' 149 158 [ '387' ] 1.00329  0 0 12 false 'trip-sameloc' '' '']!Hayes and Harlington --> Hayes and Harlington
(580) ['2S43DB' '2S46DB' 158 164 [ '387' ] 1.00057  0 0 5 false 'trip-sameloc' '' '']!London Paddington --> London Paddington
(581) ['2S46DB' '2S47DB' 164 174 [ '387' ] 1.00329  0 0 12 false 'trip-sameloc' '' '']!Hayes and Harlington --> Hayes and Harlington
(582) ['2S47DB' '2S50DB' 174 181 [ '387' ] 1.00057  0 0 5 false 'trip-sameloc' '' '']!London Paddington --> London Paddington
(583) ['2S50DB' '2S51DB' 181 191 [ '387' ] 1.00276  0 0 11 false 'trip-sameloc' '' '']!Hayes and Harlington --> Hayes and Harlington
(584) ['2S51DB' '2S54DB' 191 198 [ '387' ] 1.00057  0 0 5 false 'trip-sameloc' '' '']!London Paddington --> London Paddington
(585) ['2S54DB' '2S55DB' 198 208 [ '387' ] 1.00329  0 0 12 false 'trip-sameloc' '' '']!Hayes and Harlington --> Hayes and Harlington
(586) ['2S55DB' '2S58DB' 208 215 [ '387' ] 1.00057  0 0 5 false 'trip-sameloc' '' '']!London Paddington --> London Paddington
(587) ['2S58DB' '2S59DB' 215 223 [ '387' ] 1.00329  0 0 12 false 'trip-sameloc' '' '']!Hayes and Harlington --> Hayes and Harlington
(588) ['2S59DB' '2S62DB' 223 228 [ '387' ] 1.00057  0 0 5 false 'trip-sameloc' '' '']!London Paddington --> London Paddington
(589) ['2S62DB' '2S63DB' 228 235 [ '387' ] 1.00447  0 0 14 false 'trip-sameloc' '' '']!Hayes and Harlington --> Hayes and Harlington
(590) ['2S63DB' '2N48DA' 235 240 [ '387' ] 1.00514  0 0 15 false 'trip-sameloc' '' '']!London Paddington --> London Paddington
(591) ['2L06DA' '2P15DA' 14 25 [ '387' ] 1.00276  0 0 11 false 'trip-sameloc' '' '']!Didcot Parkway --> Didcot Parkway
(592) ['2P15DA' '2R17DA' 25 55 [ '387' ] 1.00514  0 0 15 false 'trip-sameloc' '' '']!London Paddington --> London Paddington
(593) ['2R17DA' '1P20DA' 55 73 [ '387' ] 1.00386  0 0 13 false 'trip-sameloc' '' '']!Reading --> Reading
(594) ['1P20DA' '2S20DB' 73 83 [ '387' ] 1.00112  0 0 7 false 'trip-sameloc' '' '']!London Paddington --> London Paddington
(595) ['2S20DB' '2S21DB' 83 90 [ '387' ] 1.00329  0 0 12 false 'trip-sameloc' '' '']!Hayes and Harlington --> Hayes and Harlington
(596) ['2S21DB' '2S24DB' 90 95 [ '387' ] 1.00057  0 0 5 false 'trip-sameloc' '' '']!London Paddington --> London Paddington
(597) ['2S24DB' '2S25DB' 95 103 [ '387' ] 1.00329  0 0 12 false 'trip-sameloc' '' '']!Hayes and Harlington --> Hayes and Harlington
(598) ['2S25DB' '2S28DB' 103 107 [ '387' ] 1.00057  0 0 5 false 'trip-sameloc' '' '']!London Paddington --> London Paddington
(599) ['2S28DB' '2S29DB' 107 115 [ '387' ] 1.00329  0 0 12 false 'trip-sameloc' '' '']!Hayes and Harlington --> Hayes and Harlington
(600) ['2S29DB' '2S32DB' 115 119 [ '387' ] 1.00057  0 0 5 false 'trip-sameloc' '' '']!London Paddington --> London Paddington
(601) ['2S32DB' '2S33DB' 119 127 [ '387' ] 1.00329  0 0 12 false 'trip-sameloc' '' '']!Hayes and Harlington --> Hayes and Harlington
(602) ['2S33DB' '2S36DB' 127 131 [ '387' ] 1.00057  0 0 5 false 'trip-sameloc' '' '']!London Paddington --> London Paddington
(603) ['2S36DB' '2S37DB' 131 139 [ '387' ] 1.00329  0 0 12 false 'trip-sameloc' '' '']!Hayes and Harlington --> Hayes and Harlington
(604) ['2S37DB' '2S40DB' 139 143 [ '387' ] 1.00057  0 0 5 false 'trip-sameloc' '' '']!London Paddington --> London Paddington
(605) ['2S40DB' '2S41DB' 143 151 [ '387' ] 1.00329  0 0 12 false 'trip-sameloc' '' '']!Hayes and Harlington --> Hayes and Harlington
(606) ['2S41DB' '2S44DB' 151 156 [ '387' ] 1.00057  0 0 5 false 'trip-sameloc' '' '']!London Paddington --> London Paddington
(607) ['2S44DB' '2S45DB' 156 165 [ '387' ] 1.00329  0 0 12 false 'trip-sameloc' '' '']!Hayes and Harlington --> Hayes and Harlington
(608) ['2S45DB' '2S48DB' 165 172 [ '387' ] 1.00057  0 0 5 false 'trip-sameloc' '' '']!London Paddington --> London Paddington
(609) ['2S48DB' '2S49DB' 172 182 [ '387' ] 1.00329  0 0 12 false 'trip-sameloc' '' '']!Hayes and Harlington --> Hayes and Harlington
(610) ['2S49DB' '2S52DB' 182 189 [ '387' ] 1.00057  0 0 5 false 'trip-sameloc' '' '']!London Paddington --> London Paddington
(611) ['2S52DB' '2S53DB' 189 200 [ '387' ] 1.00329  0 0 12 false 'trip-sameloc' '' '']!Hayes and Harlington --> Hayes and Harlington
(612) ['2S53DB' '2S56DB' 200 206 [ '387' ] 1.00057  0 0 5 false 'trip-sameloc' '' '']!London Paddington --> London Paddington
(613) ['2S56DB' '2S57DB' 206 216 [ '387' ] 1.00329  0 0 12 false 'trip-sameloc' '' '']!Hayes and Harlington --> Hayes and Harlington
(614) ['2S57DB' '2S60DB' 216 221 [ '387' ] 1.00057  0 0 5 false 'trip-sameloc' '' '']!London Paddington --> London Paddington
(615) ['2S60DB' '2S61DB' 221 230 [ '387' ] 1.00329  0 0 12 false 'trip-sameloc' '' '']!Hayes and Harlington --> Hayes and Harlington
(616) ['2S61DB' '2S64DB' 230 234 [ '387' ] 1.00057  0 0 5 false 'trip-sameloc' '' '']!London Paddington --> London Paddington
(617) ['2S64DB' '2S65DB' 234 239 [ '387' ] 1.00329  0 0 12 false 'trip-sameloc' '' '']!Hayes and Harlington --> Hayes and Harlington
(618) ['2S65DB' '2R79DA' 239 244 [ '387' ] 1.0066  0 0 17 false 'trip-sameloc' '' '']!London Paddington --> London Paddington
(619) ['1P01DA' '1R01DA' 17 34 [ '387' ] 1.00584  0 0 16 false 'trip-sameloc' '' '']!London Paddington --> London Paddington
(620) ['1R01DA' '2P21DA' 34 54 [ '387' ] 1.00447  0 0 14 false 'trip-sameloc' '' '']!Reading --> Reading
(621) ['2P21DA' '2R24DA' 54 76 [ '387' ] 1.01543  0 0 26 false 'trip-sameloc' '' '']!London Paddington --> London Paddington
(622) ['2R24DA' '2P33DA' 76 91 [ '387' ] 1.00228  0 0 10 false 'trip-sameloc' '' '']!Reading --> Reading
(623) ['2P33DA' '2N34DA' 91 104 [ '387' ] 1.00329  0 0 12 false 'trip-sameloc' '' '']!London Paddington --> London Paddington
(624) ['2N34DA' '2P50DA' 104 123 [ '387' ] 1.00276  0 0 11 false 'trip-sameloc' '' '']!Didcot Parkway --> Didcot Parkway
(625) ['2P50DA' '2R46DA' 123 142 [ '387' ] 1.00228  0 0 10 false 'trip-sameloc' '' '']!London Paddington --> London Paddington
(626) ['2R46DA' '2P61DA' 142 157 [ '387' ] 1.00228  0 0 10 false 'trip-sameloc' '' '']!Reading --> Reading
(627) ['2P61DA' '1N93DA' 157 175 [ '387' ] 1.00146  0 0 8 false 'trip-sameloc' '' '']!London Paddington --> London Paddington
(628) ['1N93DA' '2P74DA' 175 187 [ '387' ] 1.00386  0 0 13 false 'trip-sameloc' '' '']!Maidenhead --> Maidenhead
(629) ['2P74DA' '2R65DA' 187 205 [ '387' ] 1.00228  0 0 10 false 'trip-sameloc' '' '']!London Paddington --> London Paddington
(630) ['2R65DA' '2P83DA' 205 229 [ '387' ] 1.02797  0 0 35 false 'trip-sameloc' '' '']!Reading --> Reading
(631) ['1P92DB' '1P09DA' 20 46 [ '387' ] 1.01007  2340 1 21 false 'trip-ecs' '' '']!London Paddington --> Maidenhead
(632) ['1P09DA' '2N27DA' 46 58 [ '387' ] 1.00021  0 0 3 false 'trip-sameloc' '' '']!London Paddington --> London Paddington
(633) ['2N27DA' '2P32DA' 58 81 [ '387' ] 1.00514  0 0 15 false 'trip-sameloc' '' '']!Didcot Parkway --> Didcot Parkway
(634) ['2P32DA' '2R32DA' 81 100 [ '387' ] 1.00228  0 0 10 false 'trip-sameloc' '' '']!London Paddington --> London Paddington
(635) ['2R32DA' '2P43DA' 100 114 [ '387' ] 1.00228  0 0 10 false 'trip-sameloc' '' '']!Reading --> Reading
(636) ['2P43DA' '2N38DA' 114 128 [ '387' ] 1.00514  0 0 15 false 'trip-sameloc' '' '']!London Paddington --> London Paddington
(637) ['2N38DA' '2P60DA' 128 147 [ '387' ] 1.00329  0 0 12 false 'trip-sameloc' '' '']!Didcot Parkway --> Didcot Parkway
(638) ['2P60DA' '2R55DA' 147 171 [ '387' ] 1.00185  0 0 9 false 'trip-sameloc' '' '']!London Paddington --> London Paddington
(639) ['2R55DA' '2P71DA' 171 190 [ '387' ] 1.00228  0 0 10 false 'trip-sameloc' '' '']!Reading --> Reading
(640) ['2P71DA' '2N43DA' 190 210 [ '387' ] 1.00329  0 0 12 false 'trip-sameloc' '' '']!London Paddington --> London Paddington
(641) ['2S04DB' '2S05DB' 21 30 [ '387' ] 1.00329  0 0 12 false 'trip-sameloc' '' '']!Hayes and Harlington --> Hayes and Harlington
(642) ['2S05DB' '2S08DB' 30 37 [ '387' ] 1.00057  0 0 5 false 'trip-sameloc' '' '']!London Paddington --> London Paddington
(643) ['2S08DB' '2S09DB' 37 48 [ '387' ] 1.00329  0 0 12 false 'trip-sameloc' '' '']!Hayes and Harlington --> Hayes and Harlington
(644) ['2S09DB' '2S12DB' 48 56 [ '387' ] 1.00057  0 0 5 false 'trip-sameloc' '' '']!London Paddington --> London Paddington
(645) ['2S12DB' '2S13DB' 56 65 [ '387' ] 1.00329  0 0 12 false 'trip-sameloc' '' '']!Hayes and Harlington --> Hayes and Harlington
(646) ['2S13DB' '2S16DB' 65 70 [ '387' ] 1.00057  0 0 5 false 'trip-sameloc' '' '']!London Paddington --> London Paddington
(647) ['2S16DB' '2S17DB' 70 79 [ '387' ] 1.00329  0 0 12 false 'trip-sameloc' '' '']!Hayes and Harlington --> Hayes and Harlington
(648) ['2P12DA' '2N26DA' 24 51 [ '387' ] 1.01208  0 0 23 false 'trip-sameloc' '' '']!London Paddington --> London Paddington
(649) ['2N26DA' '2P30DA' 51 75 [ '387' ] 1.00386  0 0 13 false 'trip-sameloc' '' '']!Didcot Parkway --> Didcot Parkway
(650) ['2P30DA' '2R30DA' 75 94 [ '387' ] 1.00276  0 0 11 false 'trip-sameloc' '' '']!London Paddington --> London Paddington
(651) ['2R30DA' '2P41DA' 94 108 [ '387' ] 1.00228  0 0 10 false 'trip-sameloc' '' '']!Reading --> Reading
(652) ['2P41DA' '2N37DA' 108 122 [ '387' ] 1.00276  0 0 11 false 'trip-sameloc' '' '']!London Paddington --> London Paddington
(653) ['2N37DA' '2P57DA' 122 141 [ '387' ] 1.00329  0 0 12 false 'trip-sameloc' '' '']!Didcot Parkway --> Didcot Parkway
(654) ['2P57DA' '2R52DA' 141 163 [ '387' ] 1.00228  0 0 10 false 'trip-sameloc' '' '']!London Paddington --> London Paddington
(655) ['2R52DA' '2P69DA' 163 184 [ '387' ] 1.00228  0 0 10 false 'trip-sameloc' '' '']!Reading --> Reading
(656) ['2P69DA' '1N96DA' 184 202 [ '387' ] 1.00185  0 0 9 false 'trip-sameloc' '' '']!London Paddington --> London Paddington
(657) ['2P16DA' '2N28DA' 36 67 [ '387' ] 1.02797  0 0 35 false 'trip-sameloc' '' '']!London Paddington --> London Paddington
(658) ['2N28DA' '2P35DA' 67 87 [ '387' ] 1.00329  0 0 12 false 'trip-sameloc' '' '']!Didcot Parkway --> Didcot Parkway
(659) ['2P35DA' '2R34DA' 87 106 [ '387' ] 1.00228  0 0 10 false 'trip-sameloc' '' '']!London Paddington --> London Paddington
(660) ['2R34DA' '2P46DA' 106 120 [ '387' ] 1.00228  0 0 10 false 'trip-sameloc' '' '']!Reading --> Reading
(661) ['2P46DA' '2N39DA' 120 134 [ '387' ] 1.00185  0 0 9 false 'trip-sameloc' '' '']!London Paddington --> London Paddington
(662) ['2N39DA' '1P35DA' 134 153 [ '387' ] 1.00386  0 0 13 false 'trip-sameloc' '' '']!Didcot Parkway --> Didcot Parkway
(663) ['1P35DA' '2R58DA' 153 176 [ '387' ] 1.01105  0 0 22 false 'trip-sameloc' '' '']!London Paddington --> London Paddington
(664) ['2R58DA' '2P73DA' 176 201 [ '387' ] 1.01208  0 0 23 false 'trip-sameloc' '' '']!Reading --> Reading
(665) ['2P73DA' '2R68DA' 201 218 [ '387' ] 1.00276  0 0 11 false 'trip-sameloc' '' '']!London Paddington --> London Paddington
(666) ['2R68DA' '2P85DA(2)' 218 232 [ '387' ] 1.0066  0 0 17 false 'trip-sameloc' '' '']!Reading --> Reading
(667) ['2P73DA' '2R69DA' 201 220 [ '387' ] 1.01543  0 0 26 false 'trip-sameloc' '' '']!London Paddington --> London Paddington
(668) ['2R69DA' '2P86DA' 220 237 [ '387' ] 1.00913  0 0 20 false 'trip-sameloc' '' '']!Reading --> Reading
(669) ['2P86DA' '2R80DA' 237 245 [ '387' ] 1.02338  0 0 32 false 'trip-sameloc' '' '']!London Paddington --> London Paddington
(670) ['2P62DA' '2R59DA' 160 180 [ '387' ] 1.00185  0 0 9 false 'trip-sameloc' '' '']!London Paddington --> London Paddington
(671) ['2R53DA' '1D93DA(2)' 169 193 [ '387' ] 1.0192  0 0 29 false 'trip-sameloc' '' '']!Reading --> Reading
(672) ['1D93DA(2)' '2P77DA(1)' 193 204 [ '387' ] 1.00146  0 0 8 false 'trip-sameloc' '' '']!Didcot Parkway --> Didcot Parkway
(673) ['2P10DA' '2R13DA' 18 35 [ '387' ] 1.00386  0 0 13 false 'trip-sameloc' '' '']!London Paddington --> London Paddington
(674) ['2R13DA' '2P22DA' 35 60 [ '387' ] 1.01427  0 0 25 false 'trip-sameloc' '' '']!Reading --> Reading
(675) ['2P22DA' '2R24DA' 60 76 [ '387' ] 1.00228  0 0 10 false 'trip-sameloc' '' '']!London Paddington --> London Paddington
(676) ['2P50DA' '2S42DB' 123 149 [ '387' ] 1.04221  0 0 43 false 'trip-sameloc' '' '']!London Paddington --> London Paddington
(677) ['2S43DB' '1D91DA' 158 167 [ '387' ] 1.00185  0 0 9 false 'trip-sameloc' '' '']!London Paddington --> London Paddington
(678) ['1D91DA' '2P75DA' 167 196 [ '387' ] 1.05708  0 0 50 false 'trip-sameloc' '' '']!Didcot Parkway --> Didcot Parkway
(679) ['2P75DA' '2R69DA' 196 220 [ '387' ] 1.00228  0 0 10 false 'trip-sameloc' '' '']!London Paddington --> London Paddington
(680) ['2P11DA' '2N25DA' 13 40 [ '387' ] 1.00185  0 0 9 false 'trip-sameloc' '' '']!London Paddington --> London Paddington
(681) ['2N25DA' '2P27DA' 40 68 [ '387' ] 1.00146  0 0 8 false 'trip-sameloc' '' '']!Didcot Parkway --> Didcot Parkway
(682) ['2P27DA' '2R28DA' 68 88 [ '387' ] 1.00276  0 0 11 false 'trip-sameloc' '' '']!London Paddington --> London Paddington
(683) ['2R28DA' '2P38DA' 88 102 [ '387' ] 1.00112  0 0 7 false 'trip-sameloc' '' '']!Reading --> Reading
(684) ['2P38DA' '2N36DA' 102 116 [ '387' ] 1.00276  0 0 11 false 'trip-sameloc' '' '']!London Paddington --> London Paddington
(685) ['2N36DA' '2P55DA' 116 135 [ '387' ] 1.00386  0 0 13 false 'trip-sameloc' '' '']!Didcot Parkway --> Didcot Parkway
(686) ['2P55DA' '1N40DA' 135 154 [ '387' ] 1.00112  0 0 7 false 'trip-sameloc' '' '']!London Paddington --> London Paddington
(687) ['2P62DA' '1D93DA(1)' 160 183 [ '387' ] 1.00584  0 0 16 false 'trip-sameloc' '' '']!London Paddington --> London Paddington
(688) ['2P06DA' '2N23DA' 9 23 [ '387' ] 1.00276  0 0 11 false 'trip-sameloc' '' '']!London Paddington --> London Paddington
(689) ['2N23DA' '1P17DA' 23 53 [ '387' ] 1.0074  0 0 18 false 'trip-sameloc' '' '']!Didcot Parkway --> Didcot Parkway
(690) ['1P17DA' '2N29DA' 53 74 [ '387' ] 1.00329  0 0 12 false 'trip-sameloc' '' '']!London Paddington --> London Paddington
(691) ['2N29DA' '2P37DA' 74 93 [ '387' ] 1.00329  0 0 12 false 'trip-sameloc' '' '']!Didcot Parkway --> Didcot Parkway
(692) ['2P37DA' '2R36DA' 93 112 [ '387' ] 1.00228  0 0 10 false 'trip-sameloc' '' '']!London Paddington --> London Paddington
(693) ['2R36DA' '2P48DA' 112 126 [ '387' ] 1.00146  0 0 8 false 'trip-sameloc' '' '']!Reading --> Reading
(694) ['2P48DA' '2N40DA' 126 140 [ '387' ] 1.00276  0 0 11 false 'trip-sameloc' '' '']!London Paddington --> London Paddington
(695) ['2N40DA' '2P65DA' 140 161 [ '387' ] 1.00228  0 0 10 false 'trip-sameloc' '' '']!Didcot Parkway --> Didcot Parkway
(696) ['2P65DA' '2R61DA' 161 188 [ '387' ] 1.00185  0 0 9 false 'trip-sameloc' '' '']!London Paddington --> London Paddington
(697) ['2R61DA' '2P77DA(2)' 188 211 [ '387' ] 1.01427  0 0 25 false 'trip-sameloc' '' '']!Reading --> Reading
(698) ['2R65DA' '2P81DA' 205 224 [ '387' ] 1.00112  0 0 7 false 'trip-sameloc' '' '']!Reading --> Reading
(699) ['2S45DB' '2R59DA' 165 180 [ '387' ] 1.02338  0 0 32 false 'trip-sameloc' '' '']!London Paddington --> London Paddington
(700) ['2P58DA' '2S48DB' 150 172 [ '387' ] 1.0192  0 0 29 false 'trip-sameloc' '' '']!London Paddington --> London Paddington
(701) ['2P17DA' '2N28DA' 42 67 [ '387' ] 1.01315  0 0 24 false 'trip-sameloc' '' '']!London Paddington --> London Paddington
(702) ['2R58DA' '1D98DA' 176 213 [ '387' ] 1.0192  2220 1 29 false 'trip-ecs' '' '']!Reading --> London Paddington
(703) ['2S17DB' '2S22DB' 79 89 [ '387' ] 1.02797  0 0 35 false 'trip-sameloc' '' '']!London Paddington --> London Paddington
(704) ['2S39DB' '2R50DA' 145 155 [ '387' ] 1.02338  0 0 32 false 'trip-sameloc' '' '']!London Paddington --> London Paddington
(705) ['2R50DA' '2P66DA' 155 173 [ '387' ] 1.00228  0 0 10 false 'trip-sameloc' '' '']!Reading --> Reading
(706) ['2P66DA' '2R62DA' 173 194 [ '387' ] 1.00329  0 0 12 false 'trip-sameloc' '' '']!London Paddington --> London Paddington
(707) ['2N20DA' '1P08DA' 8 31 [ '387' ] 1.00112  0 0 7 false 'trip-sameloc' '' '']!Didcot Parkway --> Didcot Parkway
(708) ['1P08DA' '1R02DA' 31 52 [ '387' ] 1.00447  0 0 14 false 'trip-sameloc' '' '']!London Paddington --> London Paddington
(709) ['1R02DA' '2P26DA' 52 71 [ '387' ] 1.00913  0 0 20 false 'trip-sameloc' '' '']!Reading --> Reading
(710) ['2P26DA' '2N31DA' 71 86 [ '387' ] 1.00276  0 0 11 false 'trip-sameloc' '' '']!London Paddington --> London Paddington
(711) ['2N31DA' '2P42DA' 86 105 [ '387' ] 1.00329  0 0 12 false 'trip-sameloc' '' '']!Didcot Parkway --> Didcot Parkway
(712) ['2P42DA' '2R40DA' 105 124 [ '387' ] 1.00276  0 0 11 false 'trip-sameloc' '' '']!London Paddington --> London Paddington
(713) ['2R40DA' '2P53DA' 124 138 [ '387' ] 1.00228  0 0 10 false 'trip-sameloc' '' '']!Reading --> Reading
(714) ['2P53DA' '2R50DA' 138 155 [ '387' ] 1.01543  0 0 26 false 'trip-sameloc' '' '']!London Paddington --> London Paddington
(715) ['2P03DA' '2N20DA' 4 8 [ '387' ] 1.0192  0 0 29 false 'trip-sameloc' '' '']!London Paddington --> London Paddington
(716) ['2P53DA' '2N42DA' 138 152 [ '387' ] 1.00276  0 0 11 false 'trip-sameloc' '' '']!London Paddington --> London Paddington
(717) ['2N42DA' '2P70DA' 152 177 [ '387' ] 1.00185  0 0 9 false 'trip-sameloc' '' '']!Didcot Parkway --> Didcot Parkway
(718) ['2P70DA' '1D97DA' 177 207 [ '387' ] 1.00447  0 0 14 false 'trip-sameloc' '' '']!London Paddington --> London Paddington
(719) ['1D97DA' '2P85DA(1)' 207 226 [ '387' ] 1.00329  0 0 12 false 'trip-sameloc' '' '']!Didcot Parkway --> Didcot Parkway
(720) ['2P85DA(1)' '2P85DA(2)' 226 232 [ '387' ] 1.00185  0 0 9 false 'trip-sameloc' '' '']!Reading --> Reading
(721) ['1P80DA' '2S06DB' 16 29 [ '387' ] 1.00185  0 0 9 false 'trip-sameloc' '' '']!London Paddington --> London Paddington
(722) ['2P75DA' '1R04DA' 196 222 [ '387' ] 1.00584  0 0 16 false 'trip-sameloc' '' '']!London Paddington --> London Paddington
(723) ['2S15DB' '2R26DA' 72 82 [ '387' ] 1.02338  0 0 32 false 'trip-sameloc' '' '']!London Paddington --> London Paddington
(724) ['2R26DA' '2P36DA' 82 96 [ '387' ] 1.00276  0 0 11 false 'trip-sameloc' '' '']!Reading --> Reading
(725) ['2P36DA' '2N35DA' 96 110 [ '387' ] 1.00228  0 0 10 false 'trip-sameloc' '' '']!London Paddington --> London Paddington
(726) ['2N35DA' '2P52DA' 110 129 [ '387' ] 1.00447  0 0 14 false 'trip-sameloc' '' '']!Didcot Parkway --> Didcot Parkway
(727) ['2P52DA' '1N40DA' 129 154 [ '387' ] 1.03297  0 0 38 false 'trip-sameloc' '' '']!London Paddington --> London Paddington
(728) ['1P81DA' '2P63DA' 50 166 [ '387' ] 5.38  3540 1 438 false 'trip-ecs' '' '']!London Paddington --> Reading
(729) ['2P63DA' '1D94DA' 166 192 [ '387' ] 1.0179  0 0 28 false 'trip-sameloc' '' '']!London Paddington --> London Paddington
(730) ['1D94DA' '2P80DA' 192 212 [ '387' ] 1.00386  0 0 13 false 'trip-sameloc' '' '']!Didcot Parkway --> Didcot Parkway
(731) ['2P80DA' '2S64DB' 212 234 [ '387' ] 1.00447  0 0 14 false 'trip-sameloc' '' '']!London Paddington --> London Paddington
(732) ['2P08DA' '2N24DA' 7 32 [ '387' ] 1.00185  0 0 9 false 'trip-sameloc' '' '']!London Paddington --> London Paddington
(733) ['2N24DA' '2P25DA' 32 61 [ '387' ] 1.00447  0 0 14 false 'trip-sameloc' '' '']!Didcot Parkway --> Didcot Parkway
(734) ['2P25DA' '2R26DA' 61 82 [ '387' ] 1.00228  0 0 10 false 'trip-sameloc' '' '']!London Paddington --> London Paddington
(735) ['2P52DA' '2R48DA' 129 148 [ '387' ] 1.00276  0 0 11 false 'trip-sameloc' '' '']!London Paddington --> London Paddington
(736) ['2R48DA' '2P63DA' 148 166 [ '387' ] 1.00228  0 0 10 false 'trip-sameloc' '' '']!Reading --> Reading
(737) ['2P63DA' '2R60DA' 166 185 [ '387' ] 1.00146  0 0 8 false 'trip-sameloc' '' '']!London Paddington --> London Paddington
(738) ['2R60DA' '2P76DA' 185 209 [ '387' ] 1.00913  0 0 20 false 'trip-sameloc' '' '']!Reading --> Reading
(739) ['2P76DA' '2R71DA' 209 227 [ '387' ] 1.01543  0 0 26 false 'trip-sameloc' '' '']!London Paddington --> London Paddington
(740) ['2R71DA' '2P88DA' 227 241 [ '387' ] 1.01007  0 0 21 false 'trip-sameloc' '' '']!Reading --> Reading
(741) ['2P88DA' '2R84DA' 241 250 [ '387' ] 1.0442  0 0 44 false 'trip-sameloc' '' '']!London Paddington --> London Paddington
(742) ['2R84DA' '2P01DA' 250 253 [ '387' ] 1.0066  0 0 17 false 'trip-sameloc' '' '']!Reading --> Reading
(743) ['2P17DA' '2R20DA' 42 62 [ '387' ] 1.00584  0 0 16 false 'trip-sameloc' '' '']!London Paddington --> London Paddington
(744) ['1P06DA' '2R17DA' 26 55 [ '387' ] 1.02639  0 0 34 false 'trip-sameloc' '' '']!London Paddington --> London Paddington
(745) ['2S25DB' '2N35DA' 103 110 [ '387' ] 1.0066  0 0 17 false 'trip-sameloc' '' '']!London Paddington --> London Paddington
(746) ['2P76DA' '2N45DA' 209 225 [ '387' ] 1.00276  0 0 11 false 'trip-sameloc' '' '']!London Paddington --> London Paddington
(747) ['2N45DA' '2L89DA' 225 242 [ '387' ] 1.00228  0 0 10 false 'trip-sameloc' '' '']!Didcot Parkway --> Didcot Parkway
(748) ['2P77DA(2)' '2R71DA' 211 227 [ '387' ] 1.00228  0 0 10 false 'trip-sameloc' '' '']!London Paddington --> London Paddington
(749) ['2P88DA' '2N49DA' 241 249 [ '387' ] 1.00824  0 0 19 false 'trip-sameloc' '' '']!London Paddington --> London Paddington
(750) ['1P06DA' '1P97DA' 26 63 [ '387' ] 1.01427  2460 1 25 false 'trip-ecs' '' '']!London Paddington --> Maidenhead
(751) ['1P97DA' '2N29DA' 63 74 [ '387' ] 1.00146  0 0 8 false 'trip-sameloc' '' '']!London Paddington --> London Paddington
(752) ['2P37DA' '2N36DA' 93 116 [ '387' ] 1.01427  0 0 25 false 'trip-sameloc' '' '']!London Paddington --> London Paddington
(753) ['2P55DA' '1D90DA' 135 162 [ '387' ] 1.02639  0 0 34 false 'trip-sameloc' '' '']!London Paddington --> London Paddington
(754) ['1P97DA' '2P38DA' 63 102 [ '387' ] 1.19324  3420 1 92 false 'trip-ecs' '' '']!London Paddington --> Reading
(755) ['1D90DA' '2P72DA' 162 186 [ '387' ] 1.03838  0 0 41 false 'trip-sameloc' '' '']!Didcot Parkway --> Didcot Parkway
(756) ['2P72DA' '2R67DA' 186 214 [ '387' ] 1.00276  0 0 11 false 'trip-sameloc' '' '']!London Paddington --> London Paddington
(757) ['2R67DA' '2P83DA' 214 229 [ '387' ] 1.00228  0 0 10 false 'trip-sameloc' '' '']!Reading --> Reading
(758) ['2P50DA' '2S42DB' 123 149 [ '387' ] 1.04221  0 0 43 false 'trip-sameloc' '' '']!London Paddington --> London Paddington
(759) ['2P88DA' '2N49DA' 241 249 [ '387' ] 1.00824  0 0 19 false 'trip-sameloc' '' '']!London Paddington --> London Paddington
(760) ['2P50DA' '2R46DA' 123 142 [ '387' ] 1.00228  0 0 10 false 'trip-sameloc' '' '']!London Paddington --> London Paddington
(761) ['2P58DA' '2R55DA' 150 171 [ '387' ] 1.01543  0 0 26 false 'trip-sameloc' '' '']!London Paddington --> London Paddington
(762) ['2P07DA' '2S06DB' 10 29 [ '387' ] 1.00447  0 0 14 false 'trip-sameloc' '' '']!London Paddington --> London Paddington
(763) ['2P45DA' '2S36DB' 111 131 [ '387' ] 1.00447  0 0 14 false 'trip-sameloc' '' '']!London Paddington --> London Paddington
(764) ['1P11DA' '2S14DB' 39 64 [ '387' ] 1.01007  0 0 21 false 'trip-sameloc' '' '']!London Paddington --> London Paddington
(765) ['2S49DB' '2R64DA' 182 203 [ '387' ] 1.05482  0 0 49 false 'trip-sameloc' '' '']!London Paddington --> London Paddington
(766) ['2P52DA' '2N42DA' 129 152 [ '387' ] 1.01543  0 0 26 false 'trip-sameloc' '' '']!London Paddington --> London Paddington
(767) ['1P80DA' '2S08DB' 16 37 [ '387' ] 1.03473  0 0 39 false 'trip-sameloc' '' '']!London Paddington --> London Paddington
(768) ['1P92DB' '2S08DB' 20 37 [ '387' ] 1.02194  0 0 31 false 'trip-sameloc' '' '']!London Paddington --> London Paddington
(769) ['2P61DA' '1D93DA(1)' 157 183 [ '387' ] 1.02194  0 0 31 false 'trip-sameloc' '' '']!London Paddington --> London Paddington
(770) ['1P09DA' '2R19DA' 46 59 [ '387' ] 1.00276  0 0 11 false 'trip-sameloc' '' '']!London Paddington --> London Paddington
(771) ['2P21DA' '2S18DB' 54 77 [ '387' ] 1.0192  0 0 29 false 'trip-sameloc' '' '']!London Paddington --> London Paddington
(772) ['2P57DA' '1N92DA' 141 168 [ '387' ] 1.01315  0 0 24 false 'trip-sameloc' '' '']!London Paddington --> London Paddington
(773) ['2P71DA' '2S58DB' 190 215 [ '387' ] 1.02055  0 0 30 false 'trip-sameloc' '' '']!London Paddington --> London Paddington
(774) ['2P37DA' '2R38DA' 93 118 [ '387' ] 1.03653  0 0 40 false 'trip-sameloc' '' '']!London Paddington --> London Paddington
(775) ['2S41DB' '2R51DA' 151 159 [ '387' ] 1.0074  0 0 18 false 'trip-sameloc' '' '']!London Paddington --> London Paddington
(776) ['2P55DA' '1D90DA' 135 162 [ '387' ] 1.02639  0 0 34 false 'trip-sameloc' '' '']!London Paddington --> London Paddington
(777) ['2P38DA' '2S32DB' 102 119 [ '387' ] 1.0192  0 0 29 false 'trip-sameloc' '' '']!London Paddington --> London Paddington
(778) ['2P11DA' '2N26DA' 13 51 [ '387' ] 1.02959  0 0 36 false 'trip-sameloc' '' '']!London Paddington --> London Paddington
(779) ['2S45DB' '1N93DA' 165 175 [ '387' ] 1.00584  0 0 16 false 'trip-sameloc' '' '']!London Paddington --> London Paddington
(780) ['2P72DA' '2R69DA' 186 220 [ '387' ] 1.03838  0 0 41 false 'trip-sameloc' '' '']!London Paddington --> London Paddington
(781) ['2P40DA' '2S34DB' 99 125 [ '387' ] 1.04221  0 0 43 false 'trip-sameloc' '' '']!London Paddington --> London Paddington
(782) ['1P97DA' '2S18DB' 63 77 [ '387' ] 1.01543  0 0 26 false 'trip-sameloc' '' '']!London Paddington --> London Paddington
(783) ['2S05DB' '2N25DA' 30 40 [ '387' ] 1.00514  0 0 15 false 'trip-sameloc' '' '']!London Paddington --> London Paddington
(784) ['2S55DB' '2S60DB' 208 221 [ '387' ] 1.02797  0 0 35 false 'trip-sameloc' '' '']!London Paddington --> London Paddington
(785) ['2P47DA' '2S40DB' 117 143 [ '387' ] 1.04221  0 0 43 false 'trip-sameloc' '' '']!London Paddington --> London Paddington
(786) ['2S33DB' '2S36DB' 127 131 [ '387' ] 1.00057  0 0 5 false 'trip-sameloc' '' '']!London Paddington --> London Paddington
(787) ['2P42DA' '2R42DA' 105 130 [ '387' ] 1.03838  0 0 41 false 'trip-sameloc' '' '']!London Paddington --> London Paddington
(788) ['1P01DA' '2R15DA' 17 45 [ '387' ] 1.05482  0 0 49 false 'trip-sameloc' '' '']!London Paddington --> London Paddington
(789) ['2S37DB' '2S42DB' 139 149 [ '387' ] 1.02797  0 0 35 false 'trip-sameloc' '' '']!London Paddington --> London Paddington
(790) ['2P27DA' '2R30DA' 68 94 [ '387' ] 1.03838  0 0 41 false 'trip-sameloc' '' '']!London Paddington --> London Paddington
(791) ['2S19DB' '2R30DA' 85 94 [ '387' ] 1.02338  0 0 32 false 'trip-sameloc' '' '']!London Paddington --> London Paddington
(792) ['2P86DA' '2R80DA' 237 245 [ '387' ] 1.02338  0 0 32 false 'trip-sameloc' '' '']!London Paddington --> London Paddington
(793) ['2P11DA' '2S10DB' 13 47 [ '387' ] 1.0192  0 0 29 false 'trip-sameloc' '' '']!London Paddington --> London Paddington
(794) ['2P67DA' '2S54DB' 178 198 [ '387' ] 1.00228  0 0 10 false 'trip-sameloc' '' '']!London Paddington --> London Paddington
(795) ['1P08DA' '2R19DA' 31 59 [ '387' ] 1.02639  0 0 34 false 'trip-sameloc' '' '']!London Paddington --> London Paddington
(796) ['2P51DA' '2N42DA' 132 152 [ '387' ] 1.03838  0 0 41 false 'trip-sameloc' '' '']!London Paddington --> London Paddington
(797) ['2P72DA' '2R68DA' 186 218 [ '387' ] 1.01543  0 0 26 false 'trip-sameloc' '' '']!London Paddington --> London Paddington
(798) ['1P08DA' '2R17DA' 31 55 [ '387' ] 1.0066  0 0 17 false 'trip-sameloc' '' '']!London Paddington --> London Paddington
(799) ['2P21DA' '2R24DA' 54 76 [ '387' ] 1.01543  0 0 26 false 'trip-sameloc' '' '']!London Paddington --> London Paddington
(800) ['2P66DA' '2S54DB' 173 198 [ '387' ] 1.0179  0 0 28 false 'trip-sameloc' '' '']!London Paddington --> London Paddington
(801) ['2P68DA' '1N96DA' 179 202 [ '387' ] 1.0179  0 0 28 false 'trip-sameloc' '' '']!London Paddington --> London Paddington
(802) ['2P55DA' '2S46DB' 135 164 [ '387' ] 1.04221  0 0 43 false 'trip-sameloc' '' '']!London Paddington --> London Paddington
(803) ['2P53DA' '2N42DA' 138 152 [ '387' ] 1.00276  0 0 11 false 'trip-sameloc' '' '']!London Paddington --> London Paddington
(804) ['2S47DB' '2R62DA' 174 194 [ '387' ] 1.05482  0 0 49 false 'trip-sameloc' '' '']!London Paddington --> London Paddington
(805) ['1P80DA' '2S06DB' 16 29 [ '387' ] 1.00185  0 0 9 false 'trip-sameloc' '' '']!London Paddington --> London Paddington
(806) ['1P11DA' '2R20DA' 39 62 [ '387' ] 1.00824  0 0 19 false 'trip-sameloc' '' '']!London Paddington --> London Paddington
(807) ['2P45DA' '2S38DB' 111 137 [ '387' ] 1.0442  0 0 44 false 'trip-sameloc' '' '']!London Paddington --> London Paddington
(808) ['2P20DA' '2R24DA' 43 76 [ '387' ] 1.04623  0 0 45 false 'trip-sameloc' '' '']!London Paddington --> London Paddington
(809) ['2P35DA' '2S28DB' 87 107 [ '387' ] 1.00386  0 0 13 false 'trip-sameloc' '' '']!London Paddington --> London Paddington
(810) ['2P68DA' '2R64DA' 179 203 [ '387' ] 1.02194  0 0 31 false 'trip-sameloc' '' '']!London Paddington --> London Paddington
(811) ['2P40DA' '2S32DB' 99 119 [ '387' ] 1.00386  0 0 13 false 'trip-sameloc' '' '']!London Paddington --> London Paddington
(812) ['2P25DA' '2N31DA' 61 86 [ '387' ] 1.01427  0 0 25 false 'trip-sameloc' '' '']!London Paddington --> London Paddington
(813) ['2P56DA' '2S46DB' 144 164 [ '387' ] 1.0192  0 0 29 false 'trip-sameloc' '' '']!London Paddington --> London Paddington
(814) ['2P31DA' '2S26DB' 84 101 [ '387' ] 1.0192  0 0 29 false 'trip-sameloc' '' '']!London Paddington --> London Paddington
(815) ['2P16DA' '2N28DA' 36 67 [ '387' ] 1.02797  0 0 35 false 'trip-sameloc' '' '']!London Paddington --> London Paddington
(816) ['2P72DA' '2S60DB' 186 221 [ '387' ] 1.0442  0 0 44 false 'trip-sameloc' '' '']!London Paddington --> London Paddington
(817) ['2P53DA' '1N40DA' 138 154 [ '387' ] 1.01208  0 0 23 false 'trip-sameloc' '' '']!London Paddington --> London Paddington
(818) ['2P05DA' '2S06DB' 6 29 [ '387' ] 1.0442  0 0 44 false 'trip-sameloc' '' '']!London Paddington --> London Paddington
(819) ['1P35DA' '2S48DB' 153 172 [ '387' ] 1.00146  0 0 8 false 'trip-sameloc' '' '']!London Paddington --> London Paddington
(820) ['1P97DA' '2P61DA' 63 157 [ '387' ] 4.04167  3240 1 365 false 'trip-ecs' '' '']!London Paddington --> Reading
(821) ['1P80DA' '1P09DA' 16 46 [ '387' ] 1.0192  2340 1 29 false 'trip-ecs' '' '']!London Paddington --> Maidenhead
(822) ['1N40DA' '2R60DA' 154 185 [ '387' ] 1.00447  3840 1 14 false 'trip-ecs' '' '']!Maidenhead --> London Paddington
]

signonArcNum: 253
signoffArcNum: 253
signArcNum: 506
tripArcNum: 316
ArcNum: 822

EmptyArcIdx: [631 702 728 750 754 820 821 822 ]
!Number of LastOptArcs: 0
PRIMAL_HEURISTICS: lastOpt
!GlobalVar.emptyArcs: 1P06DA->1P97DA:  TUSO.Location-> TUSO.Location 
!GlobalVar.emptyArcs: 1P97DA->2P61DA:  TUSO.Location-> TUSO.Location 
!GlobalVar.emptyArcs: 2R58DA->1D98DA:  TUSO.Location-> TUSO.Location 
!GlobalVar.emptyArcs: 1P97DA->2P38DA:  TUSO.Location-> TUSO.Location 
!GlobalVar.emptyArcs: 1P81DA->2P63DA:  TUSO.Location-> TUSO.Location 
!GlobalVar.emptyArcs: 1P80DA->1P09DA:  TUSO.Location-> TUSO.Location 
!GlobalVar.emptyArcs: 1P92DB->1P09DA:  TUSO.Location-> TUSO.Location 
!GlobalVar.emptyArcs: 1N40DA->2R60DA:  TUSO.Location-> TUSO.Location 
